04_D_ClassicalDecomposition_Assignment
…
Check that the sum of the column seasonal_c in df_seasonal is now 7, as desired:

sum(df_seasonal$seasonal_c)

[1] 7

Bring back the seasonal component from df_seasonal to the dataframe manual_decomposition using a left_join:

manual_decomposition <- 
  left_join(manual_decomposition, df_seasonal, by = "n_day")

manual_decomposition

# A tsibble: 366 x 6 [1D]
   Date       avg_demand `7-MA` detrended n_day seasonal_c
   <date>          <dbl>  <dbl>     <dbl> <dbl>      <dbl>
 1 2012-01-01      4634.    NA     NA         1      0.885
 2 2012-01-02      5374.    NA     NA         2      1.03 
 3 2012-01-03      5565.    NA     NA         3      1.04 
 4 2012-01-04      4640.  4743.     0.978     4      1.04 
 5 2012-01-05      4387.  4656.     0.942     5      1.05 
 6 2012-01-06      4380.  4525.     0.968     6      1.03 
 7 2012-01-07      4219.  4370.     0.966     7      0.920
 8 2012-01-08      4029.  4354.     0.925     1      0.885
 9 2012-01-09      4454.  4378.     1.02      2      1.03 
10 2012-01-10      4480.  4395.     1.02      3      1.04 
# ℹ 356 more rows
…
