1_Scatterplots_Hisograms_Barplots
…
definition of variables of diamonds dataset - ref. 2

diamonds

# A tibble: 53,940 × 10
   carat cut       color clarity depth table price     x     y     z
   <dbl> <ord>     <ord> <ord>   <dbl> <dbl> <int> <dbl> <dbl> <dbl>
 1  0.23 Ideal     E     SI2      61.5    55   326  3.95  3.98  2.43
 2  0.21 Premium   E     SI1      59.8    61   326  3.89  3.84  2.31
 3  0.23 Good      E     VS1      56.9    65   327  4.05  4.07  2.31
 4  0.29 Premium   I     VS2      62.4    58   334  4.2   4.23  2.63
 5  0.31 Good      J     SI2      63.3    58   335  4.34  4.35  2.75
 6  0.24 Very Good J     VVS2     62.8    57   336  3.94  3.96  2.48
 7  0.24 Very Good I     VVS1     62.3    57   336  3.95  3.98  2.47
 8  0.26 Very Good H     SI1      61.9    55   337  4.07  4.11  2.53
 9  0.22 Fair      E     VS2      65.1    61   337  3.87  3.78  2.49
10  0.23 Very Good H     VS1      59.4    61   338  4     4.05  2.39
# … with 53,930 more rows
…
aux <-
  diamonds %>% 
    group_by(cut, clarity) %>% 
    summarize(
      n_diamonds = n(), # counts the number of diamonds in each group
      avg_price = mean(price)
    )

`summarise()` has grouped output by 'cut'. You can override using the `.groups`
argument.

aux

# A tibble: 40 × 4
# Groups:   cut [5]
   cut   clarity n_diamonds avg_price
   <ord> <ord>        <int>     <dbl>
 1 Fair  I1             210     3704.
 2 Fair  SI2            466     5174.
 3 Fair  SI1            408     4208.
 4 Fair  VS2            261     4175.
 5 Fair  VS1            170     4165.
 6 Fair  VVS2            69     3350.
 7 Fair  VVS1            17     3871.
 8 Fair  IF               9     1912.
 9 Good  I1              96     3597.
10 Good  SI2           1081     4580.
# … with 30 more rows
…
Exercise 6

Generate the following graph (expected output below) based on the previously computed average prices per cut and clarity:

aux <-
  diamonds %>% 
    group_by(cut, clarity) %>% 
    summarize(
      avg_price = mean(price)
    )

aux

# A tibble: 40 × 3
# Groups:   cut [5]
   cut   clarity avg_price
   <ord> <ord>       <dbl>
 1 Fair  I1          3704.
 2 Fair  SI2         5174.
 3 Fair  SI1         4208.
 4 Fair  VS2         4175.
 5 Fair  VS1         4165.
 6 Fair  VVS2        3350.
 7 Fair  VVS1        3871.
 8 Fair  IF          1912.
 9 Good  I1          3597.
10 Good  SI2         4580.
# … with 30 more rows
…
