04 - ggplot2 - some advanced exercises
…
If you are on Windows, you still need to use forward slashes (/) for the path in R Studio, and not backslashes (\),

# Path to the folder where you place the dataset.
# Note the forward slashes /:
path_to_folder <-  "./ZZ_BC_DViz_Ex/"

# Name and extension of the file:
file <-  "Aliexpress_items.xlsx"

filepath <-  paste0(path_to_folder, file)

ali <- read_excel(filepath)
ali

# A tibble: 3,984 × 15
     Day Month Week_day  Year Items   Size  Color Gender Made_In Sent_To Item_…¹
   <dbl> <dbl>    <dbl> <dbl> <chr>   <chr> <chr> <chr>  <chr>   <chr>     <dbl>
 1     1     1        2  2010 dress   M     Navy… M      Hong K… Russia       84
 2     2     1        3  2010 suit    XL    Coff… M      Tibet   China      1687
 3     3     1        4  2010 balacl… XS    Flor… F      Xinjia… South …     587
 4     4     1        5  2010 flip f… XXL   Rose  M      Chongq… South …     110
 5     5     1        6  2010 bow Tie S     Pink  F      Beijing Malays…    1578
 6     6     1        7  2010 tights  XXL   Black M      Ningxia South …      16
 7     7     1        1  2010 jumper  XL    Army… F      Tianjin Malays…    1741
 8     8     1        2  2010 coat    XXL   Flor… F      Guangxi Malays…    2222
 9     9     1        3  2010 dress   S     Flor… F      Xinjia… South …    1642
10    10     1        4  2010 cowboy… XS    Black F      Shangh… Hong K…     927
# … with 3,974 more rows, 4 more variables: Total_Income <dbl>,
#   Price_per_Item <dbl>, Currency <chr>, Rating <dbl>, and abbreviated
#   variable name ¹​Item_Sold
…
To attain this:

Create a new auxiliary dataframe similar to aux_5best but aggregate all items. Call it aux_allitems

Use left_join() between aux_allitems and aux_5best to produce a dataframe that looks like this (code given to you, feel free to research how left_join works):

lj <- left_join(x = aux_allitems,
                y = aux_5best,
                by = c("Sent_To", "p_range"))

lj

# A tibble: 48 × 4
   Sent_To   p_range         perc_all perc_5best
   <chr>     <fct>              <dbl>      <dbl>
 1 Australia cheap               5.05       2.00
 2 Australia regular            11.6        3.67
 3 Australia expensive          17.5        7.74
 4 Australia extra expensive    65.8       32.0 
 5 China     cheap               6.28       2.02
 6 China     regular            14.7        5.30
 7 China     expensive          21.8        7.57
 8 China     extra expensive    57.2       26.2 
 9 Colombia  cheap               4.28       1.46
10 Colombia  regular            11.6        3.96
# … with 38 more rows

Use pivot_longer to go from the dataset in step 2 to a dataset that looks like this:

lj %>% pivot_longer(cols = c("perc_all", "perc_5best"),
                    names_to = "perc_type",
                    values_to = "perc_country") 

# A tibble: 96 × 4
   Sent_To   p_range         perc_type  perc_country
   <chr>     <fct>           <chr>             <dbl>
 1 Australia cheap           perc_all           5.05
 2 Australia cheap           perc_5best         2.00
 3 Australia regular         perc_all          11.6 
 4 Australia regular         perc_5best         3.67
 5 Australia expensive       perc_all          17.5 
 6 Australia expensive       perc_5best         7.74
 7 Australia extra expensive perc_all          65.8 
 8 Australia extra expensive perc_5best        32.0 
 9 China     cheap           perc_all           6.28
10 China     cheap           perc_5best         2.02
# … with 86 more rows
…
