San Francisco - Police Incidents - Exercises
…
To get the dataframe in this format, we will use pivot_longer(), as we have done in some of the examples: * with cols = everything() we specify that we want to pivot every column. * with names_to = "column" we indicate a categorical variable which will signal the column name of the corresponding value. * with values_to = "NAs" we indicate the name of the column to contain the values we are pivoting.

This is probably better understood checking the output:

missing_vals2 <- 
  missing_vals1 %>%
  pivot_longer(
    cols = everything(),
    names_to = "column",
    values_to = "NAs"
  )

missing_vals2

# A tibble: 34 × 2
   column                 NAs
   <chr>                <int>
 1 Incident Datetime        0
 2 Incident Date            0
 3 Incident Time            0
 4 Incident Year            0
 5 Incident Day of Week     0
 6 Report Datetime          0
 7 Row ID                   0
 8 Incident ID              0
 9 Incident Number          0
10 CAD Number           31338
# … with 24 more rows

Now let us further operate in this dataset and add a variable indicating the percentage of missing values missing (the number of missing values divided by the total number of rows):

missing_vals3 <- 
  missing_vals2 %>% 
  mutate(
     perc = round((NAs / nrows) * 100, 1)
  )

missing_vals3

# A tibble: 34 × 3
   column                 NAs  perc
   <chr>                <int> <dbl>
 1 Incident Datetime        0   0  
 2 Incident Date            0   0  
 3 Incident Time            0   0  
 4 Incident Year            0   0  
 5 Incident Day of Week     0   0  
 6 Report Datetime          0   0  
 7 Row ID                   0   0  
 8 Incident ID              0   0  
 9 Incident Number          0   0  
10 CAD Number           31338  23.5
# … with 24 more rows
…
  # Place the created columns at the beginning of the dataframe
  select(`Incident Year`, month, month_fday, month_day, week, tod, everything()) %>% 
  
  # Order from most recent to olderst incident
  arrange(desc(`Incident Date`))

sf_police

# A tibble: 133,207 × 39
   Incident Ye…¹ month month_fday month…²  week tod   Incid…³ Incident…⁴ Incid…⁵
           <dbl> <ord> <date>       <int> <dbl> <chr> <chr>   <date>     <time> 
 1          2022 Dece… 2022-12-01      31    52 afte… 2022/1… 2022-12-31 13:29  
 2          2022 Dece… 2022-12-01      31    52 morn… 2022/1… 2022-12-31 11:20  
 3          2022 Dece… 2022-12-01      31    52 morn… 2022/1… 2022-12-31 11:10  
 4          2022 Dece… 2022-12-01      31    52 morn… 2022/1… 2022-12-31 07:00  
 5          2022 Dece… 2022-12-01      31    52 night 2022/1… 2022-12-31 00:56  
 6          2022 Dece… 2022-12-01      31    52 night 2022/1… 2022-12-31 03:21  
 7          2022 Dece… 2022-12-01      31    52 night 2022/1… 2022-12-31 03:45  
 8          2022 Dece… 2022-12-01      31    52 morn… 2022/1… 2022-12-31 09:18  
 9          2022 Dece… 2022-12-01      31    52 afte… 2022/1… 2022-12-31 17:47  
10          2022 Dece… 2022-12-01      31    52 night 2022/1… 2022-12-31 03:24  
# … with 133,197 more rows, 30 more variables: `Incident Day of Week` <chr>,
#   `Report Datetime` <chr>, `Row ID` <dbl>, `Incident ID` <dbl>,
#   `Incident Number` <dbl>, `CAD Number` <dbl>, `Report Type Code` <chr>,
#   `Report Type Description` <chr>, `Filed Online` <lgl>,
#   `Incident Code` <chr>, `Incident Category` <chr>,
#   `Incident Subcategory` <chr>, `Incident Description` <chr>,
#   Resolution <chr>, Intersection <chr>, CNN <dbl>, `Police District` <chr>, …
…
aux <- 
sf_police %>% 
  group_by(`Police District`, month_fday) %>% 
  summarize(
    n_incidents = n()
  ) %>% 
  ungroup()

`summarise()` has grouped output by 'Police District'. You can override using
the `.groups` argument.

aux

# A tibble: 132 × 3
   `Police District` month_fday n_incidents
   <chr>             <date>           <int>
 1 Bayview           2022-01-01         977
 2 Bayview           2022-02-01         903
 3 Bayview           2022-03-01         949
 4 Bayview           2022-04-01         964
 5 Bayview           2022-05-01        1067
 6 Bayview           2022-06-01         953
 7 Bayview           2022-07-01        1065
 8 Bayview           2022-08-01        1080
 9 Bayview           2022-09-01        1042
10 Bayview           2022-10-01        1121
# … with 122 more rows
…
    # Order the observations within each Police District
    # chronologically
    arrange(`Police District`, month_fday) %>%
  
    # Compute the cummulative sum of incidents for each
    # district
    group_by(`Police District`) %>% 
    mutate(
      cumul_incidents = cumsum(n_incidents)
    )

aux2

# A tibble: 132 × 4
# Groups:   Police District [11]
   `Police District` month_fday n_incidents cumul_incidents
   <chr>             <date>           <int>           <int>
 1 Bayview           2022-01-01         977             977
 2 Bayview           2022-02-01         903            1880
 3 Bayview           2022-03-01         949            2829
 4 Bayview           2022-04-01         964            3793
 5 Bayview           2022-05-01        1067            4860
 6 Bayview           2022-06-01         953            5813
 7 Bayview           2022-07-01        1065            6878
 8 Bayview           2022-08-01        1080            7958
 9 Bayview           2022-09-01        1042            9000
10 Bayview           2022-10-01        1121           10121
# … with 122 more rows
…
  # Compute number of incidents in each neighborhood
  group_by(`Analysis Neighborhood`) %>% 
  summarize(
    n_incidents = n()
  )

aux2 <- 
  aux %>% 
  
  # Order from largest to smallest n_incidents 
  arrange(desc(n_incidents))

aux2

# A tibble: 42 × 2
   `Analysis Neighborhood`        n_incidents
   <chr>                                <int>
 1 Tenderloin                           13685
 2 Mission                              12617
 3 South of Market                      10130
 4 Financial District/South Beach        9363
 5 Bayview Hunters Point                 8931
 6 North Beach                           4871
 7 Western Addition                      4158
 8 Sunset/Parkside                       3905
 9 Marina                                3760
10 Nob Hill                              3525
# … with 32 more rows
…
