1_Introduction
…
1. What is a time series?

In simple terms, a time series is a record of values throughout time associated to an observational unit. For example, the global_economy dataset (loaded along with the library fpp3) contains observations of GDP, Imports, Exports, Population… associated to many of the world countries.

global_economy

# A tsibble: 15,150 x 9 [1Y]
# Key:       Country [263]
   Country     Code   Year         GDP Growth   CPI Imports Exports Population
   <fct>       <fct> <dbl>       <dbl>  <dbl> <dbl>   <dbl>   <dbl>      <dbl>
 1 Afghanistan AFG    1960  537777811.     NA    NA    7.02    4.13    8996351
 2 Afghanistan AFG    1961  548888896.     NA    NA    8.10    4.45    9166764
 3 Afghanistan AFG    1962  546666678.     NA    NA    9.35    4.88    9345868
 4 Afghanistan AFG    1963  751111191.     NA    NA   16.9     9.17    9533954
 5 Afghanistan AFG    1964  800000044.     NA    NA   18.1     8.89    9731361
 6 Afghanistan AFG    1965 1006666638.     NA    NA   21.4    11.3     9938414
 7 Afghanistan AFG    1966 1399999967.     NA    NA   18.6     8.57   10152331
 8 Afghanistan AFG    1967 1673333418.     NA    NA   14.2     6.77   10372630
 9 Afghanistan AFG    1968 1373333367.     NA    NA   15.2     8.90   10604346
10 Afghanistan AFG    1969 1408888922.     NA    NA   15.0    10.1    10854428
# ℹ 15,140 more rows
…
2. Example of a use case: automated forecasts of the population of different countries

First I will convert the variable popullation to millions and then we will fit different models and perform some forecasts.

Do not worry if you do not understand the entirety of the code, these are things you will learn throughout the course. This only intends to show you an example.

populations <- 
  global_economy %>% 
  mutate(Pop = Population / 1e6) %>% 
  select(Country, Year, Pop)

# Dataset containing soely the population in millions of the different countries
populations

# A tsibble: 15,150 x 3 [1Y]
# Key:       Country [263]
   Country      Year   Pop
   <fct>       <dbl> <dbl>
 1 Afghanistan  1960  9.00
 2 Afghanistan  1961  9.17
 3 Afghanistan  1962  9.35
 4 Afghanistan  1963  9.53
 5 Afghanistan  1964  9.73
 6 Afghanistan  1965  9.94
 7 Afghanistan  1966 10.2 
 8 Afghanistan  1967 10.4 
 9 Afghanistan  1968 10.6 
10 Afghanistan  1969 10.9 
# ℹ 15,140 more rows
…
Warning in sqrt(diag(best$var.coef)): NaNs produced

Warning in sqrt(diag(best$var.coef)): NaNs produced

Warning: 1 error encountered for ets
[1] ETS does not support missing values.

Examining this we see that we have got two models for each of the countries (for each of the population time series). These models are not necessary the optimal to pick up, but they have been selected automatically following criteria we will study throughout the course:

fit

# A mable: 263 x 3
# Key:     Country [263]
   Country                      ets                   arima
   <fct>                    <model>                 <model>
 1 Afghanistan         <ETS(A,A,N)>          <ARIMA(4,2,1)>
 2 Albania             <ETS(M,A,N)>          <ARIMA(0,2,2)>
 3 Algeria             <ETS(M,A,N)>          <ARIMA(2,2,2)>
 4 American Samoa      <ETS(M,A,N)>          <ARIMA(2,2,2)>
 5 Andorra             <ETS(M,A,N)> <ARIMA(2,1,2) w/ drift>
 6 Angola              <ETS(M,A,N)>          <ARIMA(4,2,1)>
 7 Antigua and Barbuda <ETS(M,A,N)> <ARIMA(2,1,2) w/ drift>
 8 Arab World          <ETS(M,A,N)>          <ARIMA(0,2,1)>
 9 Argentina           <ETS(A,A,N)>          <ARIMA(2,2,2)>
10 Armenia             <ETS(M,A,N)>          <ARIMA(3,2,0)>
# ℹ 253 more rows
…
