02_B_tsibbles
…
The screenshots above correspond to the dataset global_economy, which is loaded along the fpp3 library. The datasets loaded along with fpp3 are already in tsibble format, as the output below shows:

global_economy

# A tsibble: 15,150 x 9 [1Y]
# Key:       Country [263]
   Country     Code   Year         GDP Growth   CPI Imports Exports Population
   <fct>       <fct> <dbl>       <dbl>  <dbl> <dbl>   <dbl>   <dbl>      <dbl>
 1 Afghanistan AFG    1960  537777811.     NA    NA    7.02    4.13    8996351
 2 Afghanistan AFG    1961  548888896.     NA    NA    8.10    4.45    9166764
 3 Afghanistan AFG    1962  546666678.     NA    NA    9.35    4.88    9345868
 4 Afghanistan AFG    1963  751111191.     NA    NA   16.9     9.17    9533954
 5 Afghanistan AFG    1964  800000044.     NA    NA   18.1     8.89    9731361
 6 Afghanistan AFG    1965 1006666638.     NA    NA   21.4    11.3     9938414
 7 Afghanistan AFG    1966 1399999967.     NA    NA   18.6     8.57   10152331
 8 Afghanistan AFG    1967 1673333418.     NA    NA   14.2     6.77   10372630
 9 Afghanistan AFG    1968 1373333367.     NA    NA   15.2     8.90   10604346
10 Afghanistan AFG    1969 1408888922.     NA    NA   15.0    10.1    10854428
# ℹ 15,140 more rows
…
  #Create timestamp
  mutate(time = make_datetime(year, month, day, hour, minute)) %>%

  #Drop columns
  select(time, everything(), -c(year, month, day, hour, minute)) %>%

  #Create a tsibble, 
  #NOTE: flight and carrier are both required to uniquely identify observations
  as_tsibble(key=c(carrier, flight), index = time)

#Inspect result
flights_ts

# A tsibble: 336,776 x 4 [1m] <UTC>
# Key:       carrier, flight [5,725]
   time                carrier flight distance
   <dttm>              <chr>    <int>    <dbl>
 1 2013-11-03 15:40:00 9E        2900      765
 2 2013-11-04 15:40:00 9E        2900      765
 3 2013-11-05 15:40:00 9E        2900      765
 4 2013-11-06 15:40:00 9E        2900      765
 5 2013-11-07 15:40:00 9E        2900      765
 6 2013-11-08 15:40:00 9E        2900      765
 7 2013-11-09 15:40:00 9E        2900      765
 8 2013-11-10 15:40:00 9E        2900      765
 9 2013-11-11 15:40:00 9E        2900      765
10 2013-11-12 15:40:00 9E        2900      765
# ℹ 336,766 more rows
…
When working with a tsibble, any operation that does away with the time information will not be performed. A tsibble is designed to consistently store time series data and therefore refuses to either:

Drop the time information (the index column).

Reduce the resolution of the time information. That is any group_by operation that aggregates the data to a time frequency higher than that of the index will not be performed, or will not be performed as expected.

In the newly created flights_ts tsibble, the index column (time information) is time. If we try to select a subset of the tsibble that does not contain the column `time``, we will not succeed. The tsibble refuses to drop the time information. All the columns that make up the key will also be implicitly selected, since it is the combination if key and index that uniquely identifies each observation.

# Refuses to drop time information. Column time is selected implicitly
# Column carrier also selected implicitly, since it is part of the key
flights_ts %>% 
  select(flight)

# A tsibble: 336,776 x 3 [1m] <UTC>
# Key:       carrier, flight [5,725]
   flight time                carrier
    <int> <dttm>              <chr>  
 1   2900 2013-11-03 15:40:00 9E     
 2   2900 2013-11-04 15:40:00 9E     
 3   2900 2013-11-05 15:40:00 9E     
 4   2900 2013-11-06 15:40:00 9E     
 5   2900 2013-11-07 15:40:00 9E     
 6   2900 2013-11-08 15:40:00 9E     
 7   2900 2013-11-09 15:40:00 9E     
 8   2900 2013-11-10 15:40:00 9E     
 9   2900 2013-11-11 15:40:00 9E     
10   2900 2013-11-12 15:40:00 9E     
# ℹ 336,766 more rows

# To succeed in selecting only the column flight, we need to cast the tsibble
# to a tibble first.
flights_ts %>% 
  as_tibble() %>% # Cast to a tibble
  select(flight)

# A tibble: 336,776 × 1
   flight
    <int>
 1   2900
 2   2900
 3   2900
 4   2900
 5   2900
 6   2900
 7   2900
 8   2900
 9   2900
10   2900
# ℹ 336,766 more rows
…
If we try using group_by on the tsibble in the usual manner, the operation will not be performed because the resolution of the time index is reduced (we have information down to the minute of every flight and the resulting operation would only contain monthy information):

flights_ts %>%
  group_by(month = yearmonth(time)) %>% # group by month
  summarise(mean_dist = mean(distance))

# A tsibble: 127,328 x 3 [1m] <UTC>
# Key:       month [12]
      month time                mean_dist
      <mth> <dttm>                  <dbl>
 1 2013 Jan 2013-01-01 05:15:00     1400 
 2 2013 Jan 2013-01-01 05:29:00     1416 
 3 2013 Jan 2013-01-01 05:40:00     1089 
 4 2013 Jan 2013-01-01 05:45:00     1576 
 5 2013 Jan 2013-01-01 05:58:00      719 
 6 2013 Jan 2013-01-01 05:59:00      187 
 7 2013 Jan 2013-01-01 06:00:00     1274.
 8 2013 Jan 2013-01-01 06:05:00      502 
 9 2013 Jan 2013-01-01 06:07:00     1085 
10 2013 Jan 2013-01-01 06:08:00      212 
# ℹ 127,318 more rows
…
