04_D_Classical_Decomposition_fromScratch
…
# Let us compute the classical decomposition using the function in the feasts library:
classical_dec <- us_retail_employment %>%
  
  # Fit the classical decomposition model specifying an additive scheme
  model(
    clas_deic = classical_decomposition(Employed, type = "additive")
  ) %>%
  
  # Extract components from the fitted model
  components()

select(classical_dec, Month, Employed, trend, seasonal, random)

# A tsibble: 357 x 5 [1M]
      Month Employed  trend seasonal random
      <mth>    <dbl>  <dbl>    <dbl>  <dbl>
 1 1990 Jan   13256.    NA    -75.5   NA   
 2 1990 Feb   12966.    NA   -273.    NA   
 3 1990 Mar   12938.    NA   -253.    NA   
 4 1990 Apr   13012.    NA   -190.    NA   
 5 1990 May   13108.    NA    -88.9   NA   
 6 1990 Jun   13183.    NA    -10.4   NA   
 7 1990 Jul   13170. 13178.   -13.3    5.65
 8 1990 Aug   13160. 13161.    -9.99   8.80
 9 1990 Sep   13113. 13141.   -87.4   59.9 
10 1990 Oct   13185. 13117.    34.6   33.8 
# ℹ 347 more rows
…
We will start by creating the mentioned identifier for each month (disregarding the year) on our dataframe:

manual_decomposition <- 
  
  manual_decomposition %>% 
  
  # Compute an identifier for each month, regardless
  # of the year. This will define the subsequent groups
  mutate(
    n_month = month(Month)
  )

manual_decomposition

# A tsibble: 357 x 7 [1M]
      Month Title        Employed `12-MA` `2x12-MA` detrended n_month
      <mth> <chr>           <dbl>   <dbl>     <dbl>     <dbl>   <dbl>
 1 1990 Jan Retail Trade   13256.     NA        NA      NA          1
 2 1990 Feb Retail Trade   12966.     NA        NA      NA          2
 3 1990 Mar Retail Trade   12938.     NA        NA      NA          3
 4 1990 Apr Retail Trade   13012.     NA        NA      NA          4
 5 1990 May Retail Trade   13108.     NA        NA      NA          5
 6 1990 Jun Retail Trade   13183.  13186.       NA      NA          6
 7 1990 Jul Retail Trade   13170.  13170.    13178.     -7.66       7
 8 1990 Aug Retail Trade   13160.  13151.    13161.     -1.20       8
 9 1990 Sep Retail Trade   13113.  13130.    13141.    -27.5        9
10 1990 Oct Retail Trade   13185.  13103.    13117.     68.5       10
# ℹ 347 more rows
…
# Check that the sum is indeed 0
sum(df_seasonal$seasonal_c)

[1] 5.329071e-15

As you can see, the seasonal component is now 0. Great. Let us bring the seasonal component back into our original dataset. For this we will use a left join operation. Remember that we created previously a column called n_month that now will come in handy when doing this join:

# Bring seasonal component into the dataset (I chose to use a "join" statement, very convenient)
manual_decomposition <- 
  left_join(manual_decomposition, df_seasonal, by = "n_month")

manual_decomposition

# A tsibble: 357 x 8 [1M]
      Month Title        Employed `12-MA` `2x12-MA` detrended n_month seasonal_c
      <mth> <chr>           <dbl>   <dbl>     <dbl>     <dbl>   <dbl>      <dbl>
 1 1990 Jan Retail Trade   13256.     NA        NA      NA          1     -75.5 
 2 1990 Feb Retail Trade   12966.     NA        NA      NA          2    -273.  
 3 1990 Mar Retail Trade   12938.     NA        NA      NA          3    -253.  
 4 1990 Apr Retail Trade   13012.     NA        NA      NA          4    -190.  
 5 1990 May Retail Trade   13108.     NA        NA      NA          5     -88.9 
 6 1990 Jun Retail Trade   13183.  13186.       NA      NA          6     -10.4 
 7 1990 Jul Retail Trade   13170.  13170.    13178.     -7.66       7     -13.3 
 8 1990 Aug Retail Trade   13160.  13151.    13161.     -1.20       8      -9.99
 9 1990 Sep Retail Trade   13113.  13130.    13141.    -27.5        9     -87.4 
10 1990 Oct Retail Trade   13185.  13103.    13117.     68.5       10      34.6 
# ℹ 347 more rows

Step 4: compute the remainder component removing the seasonal component from the detrended series

Now that we have the seasonal component, we obtain the remainder component by subtracting it from the de-trended series.

# Compute remainder component:
manual_decomposition <- 
  manual_decomposition %>%
  mutate(
        remainder = detrended - seasonal_c
      )

select(manual_decomposition, Month, `2x12-MA`, seasonal_c, remainder)

# A tsibble: 357 x 4 [1M]
      Month `2x12-MA` seasonal_c remainder
      <mth>     <dbl>      <dbl>     <dbl>
 1 1990 Jan       NA      -75.5      NA   
 2 1990 Feb       NA     -273.       NA   
 3 1990 Mar       NA     -253.       NA   
 4 1990 Apr       NA     -190.       NA   
 5 1990 May       NA      -88.9      NA   
 6 1990 Jun       NA      -10.4      NA   
 7 1990 Jul    13178.     -13.3       5.65
 8 1990 Aug    13161.      -9.99      8.80
 9 1990 Sep    13141.     -87.4      59.9 
10 1990 Oct    13117.      34.6      33.8 
# ℹ 347 more rows
…
