04_E_DecompositionMethods
…
# A mable: 1 x 1
        classical
          <model>
1 <DECOMPOSITION>

Extract the components from the decomposition model using components() on the model object:

classical_comps <- 
  classical_dec %>% 
  components()

# Examine the output
classical_comps

# A dable: 357 x 7 [1M]
# Key:     .model [1]
# :        Employed = trend + seasonal + random
   .model       Month Employed  trend seasonal random season_adjust
   <chr>        <mth>    <dbl>  <dbl>    <dbl>  <dbl>         <dbl>
 1 classical 1990 Jan   13256.    NA    -75.5   NA           13331.
 2 classical 1990 Feb   12966.    NA   -273.    NA           13239.
 3 classical 1990 Mar   12938.    NA   -253.    NA           13191.
 4 classical 1990 Apr   13012.    NA   -190.    NA           13203.
 5 classical 1990 May   13108.    NA    -88.9   NA           13197.
 6 classical 1990 Jun   13183.    NA    -10.4   NA           13193.
 7 classical 1990 Jul   13170. 13178.   -13.3    5.65        13183.
 8 classical 1990 Aug   13160. 13161.    -9.99   8.80        13169.
 9 classical 1990 Sep   13113. 13141.   -87.4   59.9         13201.
10 classical 1990 Oct   13185. 13117.    34.6   33.8         13151.
# ℹ 347 more rows
…
