05_5_Train_Test
…
Over-fitting a model to data is just as bad as not identifying a pattern in the data.

Functions to subset a time series

filter()

filter() can be used to filter out a portion of a time series.

It is important to convert your time index to something that can be compared against the object you want to filter by. In the example below we need to convert the yearquarter index to a year before comparing against 1995.

# Data from 1995 onwards
aus_production %>% filter(year(Quarter) >= 1995)

# A tsibble: 62 x 7 [1Q]
   Quarter  Beer Tobacco Bricks Cement Electricity   Gas
     <qtr> <dbl>   <dbl>  <dbl>  <dbl>       <dbl> <dbl>
 1 1995 Q1   426    4714    430   1626       41768   131
 2 1995 Q2   408    3939    457   1703       43686   167
 3 1995 Q3   416    6137    417   1733       46022   181
 4 1995 Q4   520    4739    370   1545       42800   145
 5 1996 Q1   409    4275    310   1526       43661   133
 6 1996 Q2   398    5239    358   1593       44707   162
 7 1996 Q3   398    6293    379   1706       46326   184
 8 1996 Q4   507    5575    369   1699       43346   146
 9 1997 Q1   432    4802    330   1511       43938   135
10 1997 Q2   398    5523    390   1785       45828   171
# ℹ 52 more rows

More examples on the use of filter in the exercises below, that will be provided with solutions in due course.

slice()

slice(): allows extraction by indices.

# Extact the first 12 points (1 year) of data of each combination of State, Industry
aus_retail %>%
  group_by(State, Industry)  %>%
  slice(1:12) %>% 
  ungroup() # So that subsequent operations are not performed group-wise

# A tsibble: 1,824 x 5 [1M]
# Key:       State, Industry [152]
   State                        Industry           `Series ID`    Month Turnover
   <chr>                        <chr>              <chr>          <mth>    <dbl>
 1 Australian Capital Territory Cafes, restaurant… A3349849A   1982 Apr      4.4
 2 Australian Capital Territory Cafes, restaurant… A3349849A   1982 May      3.4
 3 Australian Capital Territory Cafes, restaurant… A3349849A   1982 Jun      3.6
 4 Australian Capital Territory Cafes, restaurant… A3349849A   1982 Jul      4  
 5 Australian Capital Territory Cafes, restaurant… A3349849A   1982 Aug      3.6
 6 Australian Capital Territory Cafes, restaurant… A3349849A   1982 Sep      4.2
 7 Australian Capital Territory Cafes, restaurant… A3349849A   1982 Oct      4.8
 8 Australian Capital Territory Cafes, restaurant… A3349849A   1982 Nov      5.4
 9 Australian Capital Territory Cafes, restaurant… A3349849A   1982 Dec      6.9
10 Australian Capital Territory Cafes, restaurant… A3349849A   1983 Jan      3.8
# ℹ 1,814 more rows

Slice can be used in combination with n() to refer to the maximum number of rows.

In the following examples the parenthesis play a major role because the : operator takes precedence over the - operator, so in order to adequately reference the indexes we need to use the parenthesis

Slice example 1

# Extract everything put the last 12 observations of each series 
# (each combination of State, Industry)
aus_retail %>%
  group_by(State, Industry) %>%
  slice(1:(n()-12)) %>%  # We need to enclose (n()-12) with parenthesis.
  ungroup() # So that subsequent operations are not performed group-wise

# A tsibble: 62,708 x 5 [1M]
# Key:       State, Industry [152]
   State                        Industry           `Series ID`    Month Turnover
   <chr>                        <chr>              <chr>          <mth>    <dbl>
 1 Australian Capital Territory Cafes, restaurant… A3349849A   1982 Apr      4.4
 2 Australian Capital Territory Cafes, restaurant… A3349849A   1982 May      3.4
 3 Australian Capital Territory Cafes, restaurant… A3349849A   1982 Jun      3.6
 4 Australian Capital Territory Cafes, restaurant… A3349849A   1982 Jul      4  
 5 Australian Capital Territory Cafes, restaurant… A3349849A   1982 Aug      3.6
 6 Australian Capital Territory Cafes, restaurant… A3349849A   1982 Sep      4.2
 7 Australian Capital Territory Cafes, restaurant… A3349849A   1982 Oct      4.8
 8 Australian Capital Territory Cafes, restaurant… A3349849A   1982 Nov      5.4
 9 Australian Capital Territory Cafes, restaurant… A3349849A   1982 Dec      6.9
10 Australian Capital Territory Cafes, restaurant… A3349849A   1983 Jan      3.8
# ℹ 62,698 more rows

Slice example 2

The - sign below indicates that we are interested in precisely what is not covered by (1:(n()-12)).

# Extract just last 12 observations of each series 
# (each combination of State, Industry)
# Recall thath the - operator can be used here to indecate "everything but".
aus_retail %>%
  group_by(State, Industry) %>%
  slice(-(1:(n()-12))) %>% # We need to enclose (n()-12) with parenthesis.
  ungroup() # So that subsequent operations are not performed group-wise

# A tsibble: 1,824 x 5 [1M]
# Key:       State, Industry [152]
   State                        Industry           `Series ID`    Month Turnover
   <chr>                        <chr>              <chr>          <mth>    <dbl>
 1 Australian Capital Territory Cafes, restaurant… A3349849A   2018 Jan     33.8
 2 Australian Capital Territory Cafes, restaurant… A3349849A   2018 Feb     37.2
 3 Australian Capital Territory Cafes, restaurant… A3349849A   2018 Mar     44.3
 4 Australian Capital Territory Cafes, restaurant… A3349849A   2018 Apr     40.6
 5 Australian Capital Territory Cafes, restaurant… A3349849A   2018 May     40.9
 6 Australian Capital Territory Cafes, restaurant… A3349849A   2018 Jun     40.7
 7 Australian Capital Territory Cafes, restaurant… A3349849A   2018 Jul     43.8
 8 Australian Capital Territory Cafes, restaurant… A3349849A   2018 Aug     41.7
 9 Australian Capital Territory Cafes, restaurant… A3349849A   2018 Sep     41.4
10 Australian Capital Territory Cafes, restaurant… A3349849A   2018 Oct     41.7
# ℹ 1,814 more rows

Slice example 3

# ALTERNATIVE: Extract just last 12 observations of each series
# (each combination of State, Industry)
aus_retail %>%
  group_by(State, Industry) %>%
  slice((n()-11):n()) %>% # We need to enclose (n()-11) with parenthesis.
  ungroup()

# A tsibble: 1,824 x 5 [1M]
# Key:       State, Industry [152]
   State                        Industry           `Series ID`    Month Turnover
   <chr>                        <chr>              <chr>          <mth>    <dbl>
 1 Australian Capital Territory Cafes, restaurant… A3349849A   2018 Jan     33.8
 2 Australian Capital Territory Cafes, restaurant… A3349849A   2018 Feb     37.2
 3 Australian Capital Territory Cafes, restaurant… A3349849A   2018 Mar     44.3
 4 Australian Capital Territory Cafes, restaurant… A3349849A   2018 Apr     40.6
 5 Australian Capital Territory Cafes, restaurant… A3349849A   2018 May     40.9
 6 Australian Capital Territory Cafes, restaurant… A3349849A   2018 Jun     40.7
 7 Australian Capital Territory Cafes, restaurant… A3349849A   2018 Jul     43.8
 8 Australian Capital Territory Cafes, restaurant… A3349849A   2018 Aug     41.7
 9 Australian Capital Territory Cafes, restaurant… A3349849A   2018 Sep     41.4
10 Australian Capital Territory Cafes, restaurant… A3349849A   2018 Oct     41.7
# ℹ 1,814 more rows
…
