06_5_B_ESmoothing_Model_Selection
…
Example 1

Automatic forecast of national populations (note we have not specified any of the terms of the ETS model):

fit <- global_economy %>% 
  mutate(Pop = Population /1e6) %>% 
  model(ets = ETS(Pop))

Warning: 1 error encountered for ets
[1] ETS does not support missing values.

fit

# A mable: 263 x 2
# Key:     Country [263]
   Country                      ets
   <fct>                    <model>
 1 Afghanistan         <ETS(A,A,N)>
 2 Albania             <ETS(M,A,N)>
 3 Algeria             <ETS(M,A,N)>
 4 American Samoa      <ETS(M,A,N)>
 5 Andorra             <ETS(M,A,N)>
 6 Angola              <ETS(M,A,N)>
 7 Antigua and Barbuda <ETS(M,A,N)>
 8 Arab World          <ETS(M,A,N)>
 9 Argentina           <ETS(A,A,N)>
10 Armenia             <ETS(M,A,N)>
# ℹ 253 more rows
…
log_lik <- fit %>% glance() %>% filter(Country=="China") %>% pull(log_lik)

# Number of parametes including the resudial variance 
-2*log_lik + 2*(4+1)

[1] 395.7744

fit %>% glance()

# A tibble: 262 × 10
   Country  .model  sigma2 log_lik    AIC   AICc     BIC     MSE    AMSE     MAE
   <fct>    <chr>    <dbl>   <dbl>  <dbl>  <dbl>   <dbl>   <dbl>   <dbl>   <dbl>
 1 Afghani… ets    1.17e-2    13.3  -16.6  -15.4   -6.30 1.09e-2 1.49e-1 8.01e-2
 2 Albania  ets    1.47e-5   150.  -291.  -290.  -281.   1.45e-4 1.06e-3 1.50e-3
 3 Algeria  ets    9.67e-7   104.  -198.  -197.  -188.   5.54e-4 7.81e-3 8.29e-4
 4 America… ets    9.89e-6   405.  -800.  -799.  -790.   1.67e-8 2.38e-7 2.29e-3
 5 Andorra  ets    2.80e-5   369.  -728.  -727.  -718.   1.20e-7 1.62e-6 3.99e-3
 6 Angola   ets    2.78e-6   111.  -213.  -212.  -203.   4.81e-4 7.09e-3 1.36e-3
 7 Antigua… ets    7.81e-6   375.  -741.  -740.  -731.   3.50e-8 5.04e-7 1.85e-3
 8 Arab Wo… ets    6.97e-6   -80.0  170.   171.   180.   3.43e-1 1.58e+0 1.57e-3
 9 Argenti… ets    7.97e-5   158.  -306.  -305.  -296.   7.42e-5 1.03e-3 6.17e-3
10 Armenia  ets    8.07e-6   163.  -316.  -315.  -306.   8.62e-5 1.20e-3 1.61e-3
# ℹ 252 more rows
…
  sigma^2:  1e-04

      AIC      AICc       BIC 
-306.0142 -304.8604 -295.7120 

We may examine as well the evolution of the model states over time (do not confuse with the decomposition of the time series):

fit %>% 
  filter(Country == "Argentina") %>% 
  components()

# A dable: 59 x 7 [1Y]
# Key:     Country, .model [1]
# :        Pop = lag(level, 1) + lag(slope, 1) + remainder
   Country   .model  Year   Pop level slope  remainder
   <fct>     <chr>  <dbl> <dbl> <dbl> <dbl>      <dbl>
 1 Argentina ets     1959  NA    20.3 0.334 NA        
 2 Argentina ets     1960  20.6  20.6 0.334 -0.0000506
 3 Argentina ets     1961  21.0  21.0 0.334 -0.0000405
 4 Argentina ets     1962  21.3  21.3 0.335  0.000603 
 5 Argentina ets     1963  21.6  21.6 0.334 -0.000446 
 6 Argentina ets     1964  22.0  22.0 0.332 -0.00207  
 7 Argentina ets     1965  22.3  22.3 0.329 -0.00263  
 8 Argentina ets     1966  22.6  22.6 0.325 -0.00410  
 9 Argentina ets     1967  22.9  22.9 0.323 -0.00191  
10 Argentina ets     1968  23.3  23.3 0.329  0.00562  
# ℹ 49 more rows
…
Finally, we can perform forecasts using for all the time series at once:

fc <- fit %>% 
  forecast(h = 5)

fc

# A fable: 1,315 x 5 [1Y]
# Key:     Country, .model [263]
   Country     .model  Year             Pop .mean
   <fct>       <chr>  <dbl>          <dist> <dbl>
 1 Afghanistan ets     2018    N(36, 0.012) 36.4 
 2 Afghanistan ets     2019    N(37, 0.059) 37.3 
 3 Afghanistan ets     2020     N(38, 0.16) 38.2 
 4 Afghanistan ets     2021     N(39, 0.35) 39.0 
 5 Afghanistan ets     2022     N(40, 0.64) 39.9 
 6 Albania     ets     2018 N(2.9, 0.00012)  2.87
 7 Albania     ets     2019   N(2.9, 6e-04)  2.87
 8 Albania     ets     2020  N(2.9, 0.0017)  2.87
 9 Albania     ets     2021  N(2.9, 0.0036)  2.86
10 Albania     ets     2022  N(2.9, 0.0066)  2.86
# ℹ 1,305 more rows
…
From the dataset “tourism” filter those trips with purpose Holiday. The resulting dataset will contain a different time series for each combination of Region and State (pay attentiont at the Key of the tsibble to be able to tell this!)

Fit ETS time series models to each of these time series. Let the model be chosen automatically in terms of the best \(AIC_c\).

Subsequently, generate a report for the best model corresponding to the region of Brisbane. For that same region, examine the evolution of the model states over time.

Finally generate forecasts for each region covering the next eight quarters. Filter out the forecasts for the region of Brisbane and generate a timeplot.

# 1.
holidays <- tourism %>% 
  filter(Purpose == "Holiday")

holidays

# A tsibble: 6,080 x 5 [1Q]
# Key:       Region, State, Purpose [76]
   Quarter Region   State           Purpose Trips
     <qtr> <chr>    <chr>           <chr>   <dbl>
 1 1998 Q1 Adelaide South Australia Holiday  224.
 2 1998 Q2 Adelaide South Australia Holiday  130.
 3 1998 Q3 Adelaide South Australia Holiday  156.
 4 1998 Q4 Adelaide South Australia Holiday  182.
 5 1999 Q1 Adelaide South Australia Holiday  185.
 6 1999 Q2 Adelaide South Australia Holiday  135.
 7 1999 Q3 Adelaide South Australia Holiday  136.
 8 1999 Q4 Adelaide South Australia Holiday  169.
 9 2000 Q1 Adelaide South Australia Holiday  184.
10 2000 Q2 Adelaide South Australia Holiday  134.
# ℹ 6,070 more rows

# Note that the keys in the resulting tsibble are region, state and purpose. 
# 
# This information is used by the function ETS() to determine the time series
# it needs to fit.

#2. 
fit <- holidays %>% model(ets = ETS(Trips))

fit

# A mable: 76 x 4
# Key:     Region, State, Purpose [76]
   Region                     State              Purpose          ets
   <chr>                      <chr>              <chr>        <model>
 1 Adelaide                   South Australia    Holiday <ETS(A,N,A)>
 2 Adelaide Hills             South Australia    Holiday <ETS(A,A,N)>
 3 Alice Springs              Northern Territory Holiday <ETS(M,N,A)>
 4 Australia's Coral Coast    Western Australia  Holiday <ETS(M,N,A)>
 5 Australia's Golden Outback Western Australia  Holiday <ETS(M,N,M)>
 6 Australia's North West     Western Australia  Holiday <ETS(A,N,A)>
 7 Australia's South West     Western Australia  Holiday <ETS(M,N,M)>
 8 Ballarat                   Victoria           Holiday <ETS(M,N,A)>
 9 Barkly                     Northern Territory Holiday <ETS(A,N,A)>
10 Barossa                    South Australia    Holiday <ETS(A,N,N)>
# ℹ 66 more rows
…
#4. 
fc <- fit %>% forecast(h=8)
fc

# A fable: 608 x 7 [1Q]
# Key:     Region, State, Purpose, .model [76]
   Region         State           Purpose .model Quarter       Trips .mean
   <chr>          <chr>           <chr>   <chr>    <qtr>      <dist> <dbl>
 1 Adelaide       South Australia Holiday ets    2018 Q1 N(210, 457) 210. 
 2 Adelaide       South Australia Holiday ets    2018 Q2 N(173, 473) 173. 
 3 Adelaide       South Australia Holiday ets    2018 Q3 N(169, 489) 169. 
 4 Adelaide       South Australia Holiday ets    2018 Q4 N(186, 505) 186. 
 5 Adelaide       South Australia Holiday ets    2019 Q1 N(210, 521) 210. 
 6 Adelaide       South Australia Holiday ets    2019 Q2 N(173, 537) 173. 
 7 Adelaide       South Australia Holiday ets    2019 Q3 N(169, 553) 169. 
 8 Adelaide       South Australia Holiday ets    2019 Q4 N(186, 569) 186. 
 9 Adelaide Hills South Australia Holiday ets    2018 Q1   N(19, 36)  19.4
10 Adelaide Hills South Australia Holiday ets    2018 Q2   N(20, 36)  19.6
# ℹ 598 more rows
…
Exercise 2

Look for an optimal ETS model for the time series resulting from summing the trips that have Holiday as a purpose for all states. Check if the residuals and the innovation residuals match.

aus_holidays <- tourism %>%
  filter(Purpose == "Holiday") %>% 
  summarise(Trips = sum(Trips))

aus_holidays

# A tsibble: 80 x 2 [1Q]
   Quarter  Trips
     <qtr>  <dbl>
 1 1998 Q1 11806.
 2 1998 Q2  9276.
 3 1998 Q3  8642.
 4 1998 Q4  9300.
 5 1999 Q1 11172.
 6 1999 Q2  9608.
 7 1999 Q3  8914.
 8 1999 Q4  9026.
 9 2000 Q1 11071.
10 2000 Q2  9196.
# ℹ 70 more rows
…
