6_7_CV_Practice_1_Solved
…
Answer: since we have data that does not appear to have clear trend or seasonality, we are going to pick the Naïve and the Mean model and an SES model as something in between those two models. Recall that, for \(\alpha = 1\), SES becomes a Naïve model (see session 14_1).

Section 2. Pick three models from the foregoing list and fit them to the data, performing cross validation to assess their performance:

S2. Step 1: Create the set of training datasets using stretch_tsibble():

Be sure to specify an initial size of the training dataset sufficient for a forecasting horizon of 8.

alg_exports_cv <- alg_exports %>%
  stretch_tsibble(.init = 8, .step = 1)

# Inspect result
alg_exports_cv

# A tsibble: 1,683 x 3 [1Y]
# Key:       .id [51]
    Year Exports   .id
   <dbl>   <dbl> <int>
 1  1960    39.0     1
 2  1961    46.2     1
 3  1962    19.8     1
 4  1963    24.7     1
 5  1964    25.1     1
 6  1965    22.6     1
 7  1966    26.0     1
 8  1967    23.4     1
 9  1960    39.0     2
10  1961    46.2     2
# … with 1,673 more rows
…
dim(alg_exports_cv)

[1] 1683    3

Compute a table that includes both the .id of the training dataset and the number of observations in each dataset.

# Talbe detailing dimensions of each training dataset
alg_exports_cv %>%
  as_tibble() %>% # Cast to a tibble to be able to do away with time index
  group_by(.id) %>%
  summarize(
    size = n()
  )

# A tibble: 51 × 2
     .id  size
   <int> <int>
 1     1     8
 2     2     9
 3     3    10
 4     4    11
 5     5    12
 6     6    13
 7     7    14
 8     8    15
 9     9    16
10    10    17
# … with 41 more rows

S2. Step 2: Fit the models

# Fit the models
alg_fit_cv <- alg_exports_cv %>%
  model(
    `Naïve` = NAIVE(Exports),
    Mean = MEAN(Exports),
    SES = ETS(Exports ~ error("A") + trend("N") + season("N"))
  )

alg_fit_cv

# A mable: 51 x 4
# Key:     .id [51]
     .id   Naïve    Mean          SES
   <int> <model> <model>      <model>
 1     1 <NAIVE>  <MEAN> <ETS(A,N,N)>
 2     2 <NAIVE>  <MEAN> <ETS(A,N,N)>
 3     3 <NAIVE>  <MEAN> <ETS(A,N,N)>
 4     4 <NAIVE>  <MEAN> <ETS(A,N,N)>
 5     5 <NAIVE>  <MEAN> <ETS(A,N,N)>
 6     6 <NAIVE>  <MEAN> <ETS(A,N,N)>
 7     7 <NAIVE>  <MEAN> <ETS(A,N,N)>
 8     8 <NAIVE>  <MEAN> <ETS(A,N,N)>
 9     9 <NAIVE>  <MEAN> <ETS(A,N,N)>
10    10 <NAIVE>  <MEAN> <ETS(A,N,N)>
# … with 41 more rows
…
51 * 3 

[1] 153

S2. Step 3: Generate the forecasts

S2. Step 3.1: generate forecasts of up to 8 steps into the future.

alg_fc_cv <- alg_fit_cv %>%
  forecast(h = 8)

alg_fc_cv

# A fable: 1,224 x 5 [1Y]
# Key:     .id, .model [153]
     .id .model  Year    Exports .mean
   <int> <chr>  <dbl>     <dist> <dbl>
 1     1 Naïve   1968 N(23, 114)  23.4
 2     1 Naïve   1969 N(23, 228)  23.4
 3     1 Naïve   1970 N(23, 343)  23.4
 4     1 Naïve   1971 N(23, 457)  23.4
 5     1 Naïve   1972 N(23, 571)  23.4
 6     1 Naïve   1973 N(23, 685)  23.4
 7     1 Naïve   1974 N(23, 800)  23.4
 8     1 Naïve   1975 N(23, 914)  23.4
 9     1 Mean    1968  N(28, 96)  28.4
10     1 Mean    1969  N(28, 96)  28.4
# … with 1,214 more rows
…
What are the dimensions of the output and why?

The table has 1224 rows because we have set a forecast horizon of 8 and are working with 3 models and 51 training datasets.

S2. Step 3.2: create a new column h signaling the number of steps into the future of each of the forecasts:

alg_fc_cv <- alg_fc_cv %>%
  group_by(.id, .model) %>%
  mutate(h = row_number()) %>%
  ungroup() %>%
  as_fable(response = "Exports", distribution = Exports)

alg_fc_cv

# A fable: 1,224 x 6 [1Y]
# Key:     .id, .model [153]
     .id .model  Year    Exports .mean     h
   <int> <chr>  <dbl>     <dist> <dbl> <int>
 1     1 Naïve   1968 N(23, 114)  23.4     1
 2     1 Naïve   1969 N(23, 228)  23.4     2
 3     1 Naïve   1970 N(23, 343)  23.4     3
 4     1 Naïve   1971 N(23, 457)  23.4     4
 5     1 Naïve   1972 N(23, 571)  23.4     5
 6     1 Naïve   1973 N(23, 685)  23.4     6
 7     1 Naïve   1974 N(23, 800)  23.4     7
 8     1 Naïve   1975 N(23, 914)  23.4     8
 9     1 Mean    1968  N(28, 96)  28.4     1
10     1 Mean    1969  N(28, 96)  28.4     2
# … with 1,214 more rows

S2. Step 4: generate cross-validated accuracy metrics for each forecast horizon

Retain only the MAE, RMSE, MAPE, MASE, RMSSE columns

summary_cv <- alg_fc_cv %>%
                accuracy(alg_exports, by = c("h", ".model")) %>%
                select(h, .model, .type, MAE, RMSE, MAPE, MASE, RMSSE)

summary_cv

# A tibble: 24 × 8
       h .model .type   MAE  RMSE  MAPE  MASE RMSSE
   <int> <chr>  <chr> <dbl> <dbl> <dbl> <dbl> <dbl>
 1     1 Mean   Test   7.18  8.91  25.5 1.73  1.49 
 2     1 Naïve  Test   3.79  4.97  13.9 0.912 0.832
 3     1 SES    Test   3.95  5.30  14.7 0.951 0.887
 4     2 Mean   Test   7.43  9.19  26.4 1.79  1.54 
 5     2 Naïve  Test   6.01  7.32  22.0 1.45  1.22 
 6     2 SES    Test   5.96  7.35  22.2 1.43  1.23 
 7     3 Mean   Test   7.66  9.43  27.2 1.84  1.58 
 8     3 Naïve  Test   7.47  8.67  27.6 1.80  1.45 
 9     3 SES    Test   7.27  8.58  27.3 1.75  1.44 
10     4 Mean   Test   7.81  9.61  27.6 1.88  1.61 
# … with 14 more rows
…
1 error encountered
[1] subscript out of bounds

1 error encountered
[1] subscript out of bounds

1 error encountered
[1] subscript out of bounds

1 error encountered
[1] subscript out of bounds

summary_cv_spread

# A tibble: 1,224 × 6
     .id     h .model .type   MAE  RMSE
   <int> <int> <chr>  <chr> <dbl> <dbl>
 1     1     1 Mean   Test  5.22  5.22 
 2     1     1 Naïve  Test  0.299 0.299
 3     1     1 SES    Test  5.24  5.24 
 4     1     2 Mean   Test  4.57  4.57 
 5     1     2 Naïve  Test  0.354 0.354
 6     1     2 SES    Test  4.58  4.58 
 7     1     3 Mean   Test  6.29  6.29 
 8     1     3 Naïve  Test  1.36  1.36 
 9     1     3 SES    Test  6.30  6.30 
10     1     4 Mean   Test  9.92  9.92 
# … with 1,214 more rows
…
\[
  \text{RMSE} = \sqrt{\text{mean}({e_t}^2)}
\]

If the vector of forecast errors consists of a single element (as is the case here since we are evaluating the MAE and RMSE for every single forecast), the MAE and RMSE coincide.

To better understand this have a look at session 15, specifically at the two exercises where the error metrics are computed manually.

Have NAs been generated?

Yes. Let us extract the rows of the result for which at least one column is NA.

summary_cv_spread[rowSums(is.na(summary_cv_spread)) > 0,]

# A tibble: 108 × 6
     .id     h .model .type   MAE  RMSE
   <int> <int> <chr>  <chr> <dbl> <dbl>
 1    44     8 Mean   Test    NaN   NaN
 2    44     8 Naïve  Test    NaN   NaN
 3    44     8 SES    Test    NaN   NaN
 4    45     7 Mean   Test    NaN   NaN
 5    45     7 Naïve  Test    NaN   NaN
 6    45     7 SES    Test    NaN   NaN
 7    45     8 Mean   Test    NaN   NaN
 8    45     8 Naïve  Test    NaN   NaN
 9    45     8 SES    Test    NaN   NaN
10    46     6 Mean   Test    NaN   NaN
# … with 98 more rows
…
summary_cv_manual <- summary_cv_spread %>%
  group_by(h, .model, .type) %>%
  summarize(
    MAE = mean(MAE, na.rm = TRUE), # Due to the missing values, we require na.rm = TRUE
    RMSE = sqrt(mean(RMSE^2, na.rm = TRUE)) # Due to the missing values, we require na.rm = TRUE 
  ) %>%
  ungroup()

`summarise()` has grouped output by 'h', '.model'. You can override using the
`.groups` argument.

summary_cv_manual

# A tibble: 24 × 5
       h .model .type   MAE  RMSE
   <int> <chr>  <chr> <dbl> <dbl>
 1     1 Mean   Test   7.18  8.91
 2     1 Naïve  Test   3.79  4.97
 3     1 SES    Test   3.95  5.30
 4     2 Mean   Test   7.43  9.19
 5     2 Naïve  Test   6.01  7.32
 6     2 SES    Test   5.96  7.35
 7     3 Mean   Test   7.66  9.43
 8     3 Naïve  Test   7.47  8.67
 9     3 SES    Test   7.27  8.58
10     4 Mean   Test   7.81  9.61
# … with 14 more rows
…
