5_2_TSDecomposition_MAverages_TrendEstimation
…
    #The slider function applies a function to "sliding" time windows.
    #In this case it is a 5-MA because we are moving from j=-2 (before = 2) 
    # to j=+2 (after = 2).
    `5-MA` = slider::slide_dbl(Exports, mean,
                               
                #.complete = TRUE -> function evaluated only on full windows
                .before = 2, .after = 2, .complete = TRUE)
  ) %>% 
  select(Country, Code, Year, Exports, `5-MA`)

aus_exports

# A tsibble: 58 x 5 [1Y]
# Key:       Country [1]
   Country   Code   Year Exports `5-MA`
   <fct>     <fct> <dbl>   <dbl>  <dbl>
 1 Australia AUS    1960    13.0   NA  
 2 Australia AUS    1961    12.4   NA  
 3 Australia AUS    1962    13.9   13.5
 4 Australia AUS    1963    13.0   13.5
 5 Australia AUS    1964    14.9   13.6
 6 Australia AUS    1965    13.2   13.4
 7 Australia AUS    1966    12.9   13.3
 8 Australia AUS    1967    12.9   12.7
 9 Australia AUS    1968    12.3   12.6
10 Australia AUS    1969    12.0   12.6
# … with 48 more rows
…
                              #.complete = TRUE -> function evaluated only on full windows
                              .before = width, .after = width, .complete = TRUE)

}

aus_exports <- aus_exports %>% 
                  select(Exports, `3-MA`, `5-MA`, `7-MA`, `9-MA`, `11-MA`, `13-MA`)

aus_exports

# A tsibble: 58 x 8 [1Y]
   Exports `3-MA` `5-MA` `7-MA` `9-MA` `11-MA` `13-MA`  Year
     <dbl>  <dbl>  <dbl>  <dbl>  <dbl>   <dbl>   <dbl> <dbl>
 1    13.0   NA     NA     NA     NA      NA      NA    1960
 2    12.4   13.1   NA     NA     NA      NA      NA    1961
 3    13.9   13.1   13.5   NA     NA      NA      NA    1962
 4    13.0   14.0   13.5   13.3   NA      NA      NA    1963
 5    14.9   13.7   13.6   13.3   13.2    NA      NA    1964
 6    13.2   13.7   13.4   13.3   13.1    13.1    NA    1965
 7    12.9   13.0   13.3   13.0   13.1    13.0    13.0  1966
 8    12.9   12.7   12.7   13.0   13.0    13.1    13.1  1967
 9    12.3   12.4   12.6   12.7   13.0    13.1    13.1  1968
10    12.0   12.4   12.6   12.6   12.9    13.1    13.2  1969
# … with 48 more rows
…
