TS_PPLE_2023Spring_Midterm
…
Run the code below. A pop-up window will appear (look for it). Select the file “Spain_Arrivals_Monthly.csv”, placed in the ZZ_Datasets folder

sp_arrivals <- readr::read_delim(file.choose(), delim = ",") %>% 
            mutate(year = substr(period, 1, 4),
                   month = substr(period, 6, 8),
                   ym = make_yearmonth(year = year, month = month),
                   value = as.numeric(gsub(".", "", value, fixed=TRUE))
                   ) %>% 
            select(ym, value) %>% 
            as_tsibble()

sp_arrivals

# A tsibble: 83 x 2 [1M]
         ym   value
      <mth>   <dbl>
 1 2015 Oct 6432341
 2 2015 Nov 3754802
 3 2015 Dec 3512914
 4 2016 Jan 3526537
 5 2016 Feb 3678726
 6 2016 Mar 4627206
 7 2016 Apr 6086327
 8 2016 May 7111154
 9 2016 Jun 7552758
10 2016 Jul 9545792
# ℹ 73 more rows
…
