2_4_csv_xlsc_imports_2023
…
passengers <- passengers %>%
  
  # Transform the time varialbe from chr to yearmonth()
  mutate(Month = yearmonth(Month)) %>%
  
  # Rename the column #Passengers to have a better name (good practice)
  rename(n_pasengers = `#Passengers`)

# Convert to a tsibble
passengers <- as_tsibble(passengers, index = Month)

# Check result
passengers

## # A tsibble: 144 x 2 [1M]
##       Month n_pasengers
##       <mth>       <dbl>
##  1 1949 Jan         112
##  2 1949 Feb         118
##  3 1949 Mar         132
##  4 1949 Apr         129
##  5 1949 May         121
##  6 1949 Jun         135
##  7 1949 Jul         148
##  8 1949 Aug         148
##  9 1949 Sep         136
## 10 1949 Oct         119
## #  with 134 more rows
…
pollution <- pollution %>%
  
  #Step 1: create the time_stamp
  mutate(time_stamp = make_datetime(year, month, day, hour)) %>%
  
  #Step 2: reorder columns and drop timestamp components (keep only the newly created timestamp)
  select(time_stamp, everything(), -c(No, year, month, day, hour))  %>%

  #Step 3: convert to tsibble
  as_tsibble(index = time_stamp)

pollution

## # A tsibble: 35,064 x 14 [1h] <UTC>
##    time_stamp          PM2.5  PM10   SO2   NO2    CO    O3  TEMP  PRES  DEWP
##    <dttm>              <dbl> <dbl> <dbl> <dbl> <dbl> <dbl> <dbl> <dbl> <dbl>
##  1 2013-03-01 00:00:00     4     4     4     7   300    77  -0.7 1023  -18.8
##  2 2013-03-01 01:00:00     8     8     4     7   300    77  -1.1 1023. -18.2
##  3 2013-03-01 02:00:00     7     7     5    10   300    73  -1.1 1024. -18.2
##  4 2013-03-01 03:00:00     6     6    11    11   300    72  -1.4 1024. -19.4
##  5 2013-03-01 04:00:00     3     3    12    12   300    72  -2   1025. -19.5
##  6 2013-03-01 05:00:00     5     5    18    18   400    66  -2.2 1026. -19.6
##  7 2013-03-01 06:00:00     3     3    18    32   500    50  -2.6 1026. -19.1
##  8 2013-03-01 07:00:00     3     6    19    41   500    43  -1.6 1027. -19.1
##  9 2013-03-01 08:00:00     3     6    16    43   500    45   0.1 1028. -19.2
## 10 2013-03-01 09:00:00     3     8    12    28   400    59   1.2 1028. -19.3
## #  with 35,054 more rows, and 4 more variables: RAIN <dbl>, wd <chr>,
## #   WSPM <dbl>, station <chr>
…
NO2_weekly <- select(pollution, time_stamp, NO2) %>%
  
  # Step 1: Indicate level of aggregation desired in the index. In this case
  # we will start with a weekly aggregation:
  index_by(week = yearweek(time_stamp)) %>%
  
  # Step 2: aggregate variables with the desired output
  summarise(
    average_NO2 = mean(NO2, na.rm = TRUE), # Computes the mean NO2 levels for each calendar week.
  )

NO2_weekly

## # A tsibble: 210 x 2 [1W]
##        week average_NO2
##      <week>       <dbl>
##  1 2013 W09        56.8
##  2 2013 W10        97.8
##  3 2013 W11        82.0
##  4 2013 W12        55.2
##  5 2013 W13        72.2
##  6 2013 W14        60.0
##  7 2013 W15        44.7
##  8 2013 W16        55.1
##  9 2013 W17        59.0
## 10 2013 W18        45.6
## #  with 200 more rows
…
NO2_monthly <- select(pollution, time_stamp, NO2) %>%
  
  # Step 1: Indicate level of aggregation desired in the index. In this case
  # monthly aggregation
  index_by(Month = yearmonth(time_stamp)) %>%
  
  # Step 2: Aggregate variable with the desired output
  summarise(
    average_NO2 = mean(NO2, na.rm = TRUE),
  )

NO2_monthly

## # A tsibble: 48 x 2 [1M]
##       Month average_NO2
##       <mth>       <dbl>
##  1 2013 Mar        74.8
##  2 2013 Apr        53.3
##  3 2013 May        61.0
##  4 2013 Jun        72.9
##  5 2013 Jul        55.1
##  6 2013 Aug        56.8
##  7 2013 Sep        64.2
##  8 2013 Oct        73.6
##  9 2013 Nov        60.0
## 10 2013 Dec        62.3
## #  with 38 more rows
…
singapore_covid <- singapore_covid  %>%
  
  #Step 1: create Date item using ymd
  mutate(time_stamp=ymd(Date))  %>%
  
  #Step 2: select items of interest
  select(time_stamp, `Daily Confirmed`) %>%

  #Step 3: convert to tsibble
  as_tsibble(index = time_stamp)

singapore_covid

## # A tsibble: 727 x 2 [1D]
##    time_stamp `Daily Confirmed`
##    <date>                 <dbl>
##  1 2020-01-23                 1
##  2 2020-01-24                 2
##  3 2020-01-25                 1
##  4 2020-01-26                 0
##  5 2020-01-27                 1
##  6 2020-01-28                 2
##  7 2020-01-29                 3
##  8 2020-01-30                 3
##  9 2020-01-31                 3
## 10 2020-02-01                 2
## #  with 717 more rows
EXERCISE 4: aggregating by month

singapore_monthly <- singapore_covid %>%
  
  # Step 1: Indicate level of aggregation desired in the index. In this case
  # monthly aggregation
  index_by(month = yearmonth(time_stamp)) %>%
  
  # Step 2: Aggregate variable with the desired output
  summarise(
    monthly_confirmed = sum(`Daily Confirmed`, na.rm = TRUE),
  )
singapore_monthly

## # A tsibble: 25 x 2 [1M]
##       month monthly_confirmed
##       <mth>             <dbl>
##  1 2020 Jan                16
##  2 2020 Feb                86
##  3 2020 Mar               824
##  4 2020 Apr             15243
##  5 2020 May             18750
##  6 2020 Jun              9023
##  7 2020 Jul              8300
##  8 2020 Aug              4607
##  9 2020 Sep               996
## 10 2020 Oct               250
## #  with 15 more rows
…
min(time_diff, na.rm = TRUE) # Check what happens if we remove this

## Time difference of 5 days

max(time_diff, na.rm = TRUE) # Check what happens if we remove this

## Time difference of 9 days

In conclusion, we have irregular sampling intervals. tsibble will generate problems when trying coerce this tibble to a tsibble unless we specify regular = FALSE.

fuel_prices <- as_tsibble(fuel_prices, regular = FALSE, index = Date)
fuel_prices

## # A tsibble: 881 x 3 [!] <UTC>
##    Date                `Petrol (USD)` `Diesel (USD)`
##    <dttm>                       <dbl>          <dbl>
##  1 2003-06-09 00:00:00           74.6           76.8
##  2 2003-06-16 00:00:00           74.5           76.7
##  3 2003-06-23 00:00:00           74.4           76.6
##  4 2003-06-30 00:00:00           74.4           76.5
##  5 2003-07-07 00:00:00           74.3           76.5
##  6 2003-07-14 00:00:00           74.2           76.4
##  7 2003-07-21 00:00:00           75.1           76.9
##  8 2003-07-28 00:00:00           75.1           76.9
##  9 2003-08-04 00:00:00           75.1           76.8
## 10 2003-08-11 00:00:00           75.4           77.1
## #  with 871 more rows
…
fuel_monthly <- fuel_prices %>%
  
  # Step 1: Indicate level of aggregation desired in the index. In this case
  # monthly aggregation
  index_by(Month = yearmonth(Date)) %>%
  
  # Step 2: Aggregate variable with the desired output
  summarise(
    avg_petrol_USD = mean(`Petrol (USD)`, na.rm = TRUE), # Backticks for spaces in Petrol (USD)
    avg_diesel_USD = mean(`Diesel (USD)`, na.rm = TRUE) # Backticks for spaces in Diesel (USD)
  )

fuel_monthly

## # A tsibble: 203 x 3 [1M]
##       Month avg_petrol_USD avg_diesel_USD
##       <mth>          <dbl>          <dbl>
##  1 2003 Jun           74.5           76.6
##  2 2003 Jul           74.7           76.7
##  3 2003 Aug           75.6           77.3
##  4 2003 Sep           76.2           77.6
##  5 2003 Oct           76.1           77.5
##  6 2003 Nov           76.0           77.5
##  7 2003 Dec           76.0           77.6
##  8 2004 Jan           76.1           77.8
##  9 2004 Feb           76.5           78.0
## 10 2004 Mar           77.1           78.6
## #  with 193 more rows
…
  # Piivots the data
    # names_to: indicates that the column names will be moved to a new column
    # named "Fuel"
    # values_to: indicates that the values of each obervation will be moves to
    # a new column valles "avg_price_USD".
  pivot_longer(c(petrol, diesel), names_to = "Fuel", values_to = "avg_price_USD") %>%
  
  # Updates the tsibble object, allowing us to specify a key
  update_tsibble(index = Month, key = Fuel)

# Inspect_result
fuel_monthly_long

## # A tsibble: 406 x 3 [1M]
## # Key:       Fuel [2]
##       Month Fuel   avg_price_USD
##       <mth> <chr>          <dbl>
##  1 2003 Jun diesel          76.6
##  2 2003 Jul diesel          76.7
##  3 2003 Aug diesel          77.3
##  4 2003 Sep diesel          77.6
##  5 2003 Oct diesel          77.5
##  6 2003 Nov diesel          77.5
##  7 2003 Dec diesel          77.6
##  8 2004 Jan diesel          77.8
##  9 2004 Feb diesel          78.0
## 10 2004 Mar diesel          78.6
## #  with 396 more rows
…
And NOW we can finally coherce our data to a tsibble taking this into account:

flights_ts <- 
  flights_ts %>% 
  
  #coerce to a tsibble
  as_tsibble(index = time, key = c(carrier, flight)) %>%
  
  #rearrange rows to have the key values at the beginning
  select(time, carrier, flight, everything())
  
flights_ts

## # A tsibble: 336,776 x 15 [1m] <UTC>
## # Key:       carrier, flight [5,725]
##    time                carrier flight dep_time sched_d dep_d arr_t sched
##    <dttm>              <chr>    <int>    <int>     <int>   <dbl>   <int>   <int>
##  1 2013-11-03 15:40:00 9E        2900     1531      1540      -9    1653    1725
##  2 2013-11-04 15:40:00 9E        2900     1539      1540      -1    1712    1725
##  3 2013-11-05 15:40:00 9E        2900     1548      1540       8    1708    1725
##  4 2013-11-06 15:40:00 9E        2900     1535      1540      -5    1657    1725
##  5 2013-11-07 15:40:00 9E        2900     1549      1540       9    1733    1725
##  6 2013-11-08 15:40:00 9E        2900     1539      1540      -1    1706    1725
##  7 2013-11-09 15:40:00 9E        2900     1535      1540      -5    1714    1723
##  8 2013-11-10 15:40:00 9E        2900     1538      1540      -2    1718    1725
##  9 2013-11-11 15:40:00 9E        2900     1527      1540     -13    1710    1725
## 10 2013-11-12 15:40:00 9E        2900     1535      1540      -5    1709    1725
## #  with 336,766 more rows, 7 more variables: arr_delay <dbl>, tailnum <chr>,
## #   origin <chr>, dest <chr>, air_time <dbl>, distance <dbl>, time_hour <dttm>,
## #   and abbreviated variable names sched_dep_time, dep_delay, arr_time,
## #   sched_arr_time
