5_5_TS_Midterm_Mockup_solved
…
ℹ Use `spec()` to retrieve the full column specification for this data.
ℹ Specify the column types or set `show_col_types = FALSE` to quiet this message.

# Convert column "date" to a yearmonth object
unemp <- unemp %>% 
      mutate(date = yearmonth(date)) %>% 
      as_tsibble()

Using `date` as index variable.

unemp

# A tsibble: 254 x 2 [1M]
       date   unemp
      <mth>   <dbl>
 1 2001 Jan 2017389
 2 2001 Feb 1993273
 3 2001 Mar 1981006
 4 2001 Apr 1910453
 5 2001 May 1898285
 6 2001 Jun 1842556
 7 2001 Jul 1835738
 8 2001 Aug 1878513
 9 2001 Sep 1889185
10 2001 Oct 1940910
# … with 244 more rows
…
unemp_q_mean <- unemp %>%
  
  # Step 1: Indicate level of aggregation desired in the index. In this case
  # we will start with a weekly aggregation:
  index_by(quarter = yearquarter(date)) %>%
  
  # Step 2: aggregate variables with the desired output
  summarise(
    unemp = mean(unemp, na.rm = TRUE), # Computes the mean NO2 levels for each calendar week.
  )

unemp_q_mean

# A tsibble: 85 x 2 [1Q]
   quarter    unemp
     <qtr>    <dbl>
 1 2001 Q1 1997223.
 2 2001 Q2 1883765.
 3 2001 Q3 1867812 
 4 2001 Q4 1971828.
 5 2002 Q1 2102677.
 6 2002 Q2 2008652.
 7 2002 Q3 1984206.
 8 2002 Q4 2102892.
 9 2003 Q1 2176290.
10 2003 Q2 2053481.
# … with 75 more rows
…
