6_1_BenchmarkModels_FittedValues_Forecasts
…
Forecasts

# produce forecasts for 8 timesteps
forecasts <- fit %>% forecast(h = 36)
forecasts

# A fable: 36 x 5 [1M]
# Key:     Series_ID, .model [1]
   Series_ID     .model    Month           Employed  .mean
   <chr>         <chr>     <mth>             <dist>  <dbl>
 1 CEU0500000001 SNaive 2019 Oct N(128001, 5538565) 128001
 2 CEU0500000001 SNaive 2019 Nov N(128415, 5538565) 128415
 3 CEU0500000001 SNaive 2019 Dec N(128363, 5538565) 128363
 4 CEU0500000001 SNaive 2020 Jan N(125932, 5538565) 125932
 5 CEU0500000001 SNaive 2020 Feb N(126370, 5538565) 126370
 6 CEU0500000001 SNaive 2020 Mar N(126994, 5538565) 126994
 7 CEU0500000001 SNaive 2020 Apr N(128007, 5538565) 128007
 8 CEU0500000001 SNaive 2020 May N(128771, 5538565) 128771
 9 CEU0500000001 SNaive 2020 Jun N(129800, 5538565) 129800
10 CEU0500000001 SNaive 2020 Jul N(129883, 5538565) 129883
# … with 26 more rows
…
To fully understand the model specification, let us first look at the outcome of an STL decomposition applied to this series

employed %>% 
  model(
    stl = STL(Employed)
  ) %>% 
  components()

# A dable: 117 x 8 [1M]
# Key:     Series_ID, .model [1]
# :        Employed = trend + season_year + remainder
   Series_ID     .model    Month Employed   trend season_year remainder season…¹
   <chr>         <chr>     <mth>    <dbl>   <dbl>       <dbl>     <dbl>    <dbl>
 1 CEU0500000001 stl    2010 Jan   105444 107188.      -2016.    272.    107460.
 2 CEU0500000001 stl    2010 Feb   105490 107314.      -1816.     -8.49  107306.
 3 CEU0500000001 stl    2010 Mar   106176 107440.      -1231.    -33.0   107407.
 4 CEU0500000001 stl    2010 Apr   107220 107566.       -361.     14.7   107581.
 5 CEU0500000001 stl    2010 May   107931 107695.        305.    -69.4   107626.
 6 CEU0500000001 stl    2010 Jun   108710 107825.       1006.   -121.    107704.
 7 CEU0500000001 stl    2010 Jul   108784 107954.        916.    -85.9   107868.
 8 CEU0500000001 stl    2010 Aug   108936 108087.        886.    -36.8   108050.
 9 CEU0500000001 stl    2010 Sep   108568 108220.        357.     -9.10  108211.
10 CEU0500000001 stl    2010 Oct   108984 108353.        648.    -17.2   108336.
# … with 107 more rows, and abbreviated variable name ¹​season_adjust
…
fit

# A mable: 1 x 2
# Key:     Series_ID [1]
  Series_ID                        decomp
  <chr>                           <model>
1 CEU0500000001 <STL decomposition model>

Fitted values

As usual, you can extract the fitted values using augment():

fit %>% augment()

# A tsibble: 117 x 7 [1M]
# Key:       Series_ID, .model [1]
   Series_ID     .model    Month Employed .fitted .resid .innov
   <chr>         <chr>     <mth>    <dbl>   <dbl>  <dbl>  <dbl>
 1 CEU0500000001 decomp 2010 Jan   105444      NA     NA     NA
 2 CEU0500000001 decomp 2010 Feb   105490      NA     NA     NA
 3 CEU0500000001 decomp 2010 Mar   106176      NA     NA     NA
 4 CEU0500000001 decomp 2010 Apr   107220      NA     NA     NA
 5 CEU0500000001 decomp 2010 May   107931      NA     NA     NA
 6 CEU0500000001 decomp 2010 Jun   108710      NA     NA     NA
 7 CEU0500000001 decomp 2010 Jul   108784      NA     NA     NA
 8 CEU0500000001 decomp 2010 Aug   108936      NA     NA     NA
 9 CEU0500000001 decomp 2010 Sep   108568      NA     NA     NA
10 CEU0500000001 decomp 2010 Oct   108984      NA     NA     NA
# … with 107 more rows
…
4. Use the SNAIVE method to produce forecasts of the seasonal component. Generate a graph with the time series, the fitted values and the forecasts

seasonal <- select(dcmp, season_year)
seasonal

# A tsibble: 369 x 2 [1M]
   season_year    Month
         <dbl>    <mth>
 1    -0.131   1988 Apr
 2     0.00568 1988 May
 3     0.0443  1988 Jun
 4     0.177   1988 Jul
 5     0.103   1988 Aug
 6     0.0602  1988 Sep
 7     0.0525  1988 Oct
 8     0.00579 1988 Nov
 9     0.322   1988 Dec
10    -0.173   1989 Jan
# … with 359 more rows
…
fit_dcmp

# A mable: 1 x 3
# Key:     State, Industry [1]
  State              Industry                                             decomp
  <chr>              <chr>                                               <model>
1 Northern Territory Clothing, footwear and personal … <STL decomposition model>

fitted_vals <- fit_dcmp %>% augment()
fitted_vals

# A tsibble: 369 x 8 [1M]
# Key:       State, Industry, .model [1]
   State              Industry     .model    Month Turno…¹ .fitted .resid .innov
   <chr>              <chr>        <chr>     <mth>   <dbl>   <dbl>  <dbl>  <dbl>
 1 Northern Territory Clothing, f… decomp 1988 Apr     2.3      NA     NA     NA
 2 Northern Territory Clothing, f… decomp 1988 May     2.9      NA     NA     NA
 3 Northern Territory Clothing, f… decomp 1988 Jun     2.6      NA     NA     NA
 4 Northern Territory Clothing, f… decomp 1988 Jul     2.8      NA     NA     NA
 5 Northern Territory Clothing, f… decomp 1988 Aug     2.9      NA     NA     NA
 6 Northern Territory Clothing, f… decomp 1988 Sep     3        NA     NA     NA
 7 Northern Territory Clothing, f… decomp 1988 Oct     3.1      NA     NA     NA
 8 Northern Territory Clothing, f… decomp 1988 Nov     3        NA     NA     NA
 9 Northern Territory Clothing, f… decomp 1988 Dec     4.2      NA     NA     NA
10 Northern Territory Clothing, f… decomp 1989 Jan     2.7      NA     NA     NA
# … with 359 more rows, and abbreviated variable name ¹​Turnover
…
