7_1_Simple_Exponential_Smoothing - Theory
…
# Estimate parameters
fit <- algeria_economy %>%
  model(ETS(Exports ~ error("A") + trend("N") + season("N")))

2. Computing the fitted values

Once the model has been fitted, we can use augment() as usual to examine the fitted values and the residuals:

fitted_vals <- 
  fit %>% augment() %>% select(Year, Exports, .fitted)

fitted_vals

# A tsibble: 58 x 3 [1Y]
    Year Exports .fitted
   <dbl>   <dbl>   <dbl>
 1  1960    39.0    39.5
 2  1961    46.2    39.1
 3  1962    19.8    45.1
 4  1963    24.7    23.8
 5  1964    25.1    24.6
 6  1965    22.6    25.0
 7  1966    26.0    23.0
 8  1967    23.4    25.5
 9  1968    23.1    23.8
10  1969    23.8    23.2
# … with 48 more rows
…
# Add this column to the fitted values
fitted_vals$weight = rev(weights)

# Reverse de order of the dataframe to depict it more clearly
fitted_vals <- 
  fitted_vals %>% arrange(desc(Year))

Warning: Current temporal ordering may yield unexpected results.
ℹ Suggest to sort by ``, `Year` first.

fitted_vals

# A tsibble: 58 x 4 [1Y]
    Year Exports .fitted       weight
   <dbl>   <dbl>   <dbl>        <dbl>
 1  2017    22.6    21.4 0.840       
 2  2016    20.9    24.4 0.134       
 3  2015    23.2    30.8 0.0215      
 4  2014    30.2    33.8 0.00344     
 5  2013    33.2    37.2 0.000551    
 6  2012    36.9    38.7 0.0000881   
 7  2011    38.8    38.3 0.0000141   
 8  2010    38.4    37.4 0.00000226  
 9  2009    35.4    47.9 0.000000361 
10  2008    48.0    47.3 0.0000000578
# … with 48 more rows
…
