Efficient Market Hypothesis (Group assignment)
…
4. Generate forecasts of 5 trading days for each of the trained models (1 point)

The result of this step should be a fable or forecast table. Name it fc

Add a column h to fc indicating the forecast horizon of each forecast.

After adding that column, apply the following command: as_fable(response = "close", distribution = close). This is to ensure that the output after performing these operations is still a fable.

fc <- fit %>% forecast(h=7)
fc

# A fable: 28 x 4 [1]
# Key:     .model [4]
   .model    trading_day          close .mean
   <chr>           <dbl>         <dist> <dbl>
 1 naive_tr1         524  N(7565, 5070) 7565.
 2 naive_tr1         525 N(7565, 10141) 7565.
 3 naive_tr1         526 N(7565, 15211) 7565.
 4 naive_tr1         527 N(7565, 20282) 7565.
 5 naive_tr1         528 N(7565, 25352) 7565.
 6 naive_tr1         529 N(7565, 30423) 7565.
 7 naive_tr1         530 N(7565, 35493) 7565.
 8 ses_tr1           524  N(7561, 5038) 7561.
 9 ses_tr1           525  N(7561, 9155) 7561.
10 ses_tr1           526 N(7561, 13273) 7561.
# … with 18 more rows

fc <- fc %>% 
  group_by(.model) %>%
  mutate(h = row_number()) %>%
  ungroup() %>%
  as_fable(response = "close", distribution = close)

5. For each combination of model, training dataset and forecast horizon compute the RMSE and MAE. Store the result in a variable called summary (1 point)

#SOLUTION
summary <- accuracy(fc, tr_data, by = c("h", ".model")) %>% select(-c(MPE, MASE, RMSSE, ACF1, ME))
summary

# A tibble: 28 × 6
       h .model    .type  RMSE   MAE  MAPE
   <int> <chr>     <chr> <dbl> <dbl> <dbl>
 1     1 naive_tr1 Test   20.6  20.6 0.272
 2     1 naive_tr2 Test   35.8  35.8 0.491
 3     1 ses_tr1   Test   25.0  25.0 0.329
 4     1 ses_tr2   Test   37.7  37.7 0.518
 5     2 naive_tr1 Test   35.2  35.2 0.463
 6     2 naive_tr2 Test   71    71   0.979
 7     2 ses_tr1   Test   39.6  39.6 0.521
 8     2 ses_tr2   Test   72.9  72.9 1.01 
 9     3 naive_tr1 Test   42.8  42.8 0.563
10     3 naive_tr2 Test  103.  103.  1.43 
# … with 18 more rows
…
