6_8_CV_Practice2_Solved
…
6_8_CV_Practice2_Solved

Exercise

For this exercise use the quarterly number of arrivals to Australia from New Zealand, 1981 Q1 – 2012 Q3, from data set aus_arrivals.

# Filter data:
nzarrivals <- aus_arrivals %>% filter(Origin == "NZ")
nzarrivals

# A tsibble: 127 x 3 [1Q]
# Key:       Origin [1]
   Quarter Origin Arrivals
     <qtr> <chr>     <int>
 1 1981 Q1 NZ        49140
 2 1981 Q2 NZ        87467
 3 1981 Q3 NZ        85841
 4 1981 Q4 NZ        61882
 5 1982 Q1 NZ        42045
 6 1982 Q2 NZ        63081
 7 1982 Q3 NZ        73275
 8 1982 Q4 NZ        54808
 9 1983 Q1 NZ        41030
10 1983 Q2 NZ        56155
# … with 117 more rows
…
b. Create a training set that withholds the last two years of available data for test purposes.

test_years = 2

train <- nzarrivals %>%
  filter(Quarter <= max(Quarter) - test_years*4)

train

# A tsibble: 119 x 3 [1Q]
# Key:       Origin [1]
   Quarter Origin Arrivals
     <qtr> <chr>     <int>
 1 1981 Q1 NZ        49140
 2 1981 Q2 NZ        87467
 3 1981 Q3 NZ        85841
 4 1981 Q4 NZ        61882
 5 1982 Q1 NZ        42045
 6 1982 Q2 NZ        63081
 7 1982 Q3 NZ        73275
 8 1982 Q4 NZ        54808
 9 1983 Q1 NZ        41030
10 1983 Q2 NZ        56155
# … with 109 more rows
…
Indeed the box-cox transformation has made the scheme additive, perhaps with the exception of the year 1988. We will use this transformation.

Let us start by recalling the name of the output components of an STL decomposition:

nzarrivals %>%
  model(
    STL(box_cox(Arrivals/1e3, lambda))
  ) %>%
  components() %>%
  select(Quarter, `box_cox(Arrivals/1000, lambda)`, trend, season_year, remainder, season_adjust)

# A tsibble: 127 x 6 [1Q]
   Quarter `box_cox(Arrivals/1000, lambda)` trend season_year remainder season…¹
     <qtr>                            <dbl> <dbl>       <dbl>     <dbl>    <dbl>
 1 1981 Q1                             7.96  9.63     -1.35     -0.315      9.31
 2 1981 Q2                            10.3   9.43      0.456     0.395      9.82
 3 1981 Q3                            10.2   9.23      0.845     0.123      9.35
 4 1981 Q4                             8.84  9.00      0.0500   -0.209      8.79
 5 1982 Q1                             7.41  8.74     -1.35      0.0151     8.76
 6 1982 Q2                             8.91  8.61      0.448    -0.146      8.46
 7 1982 Q3                             9.52  8.54      0.843     0.142      8.68
 8 1982 Q4                             8.37  8.48      0.0592   -0.174      8.31
 9 1983 Q1                             7.33  8.39     -1.35      0.280      8.67
10 1983 Q2                             8.46  8.38      0.440    -0.359      8.02
# … with 117 more rows, and abbreviated variable name ¹​season_adjust
…
# Number of training datasets created
nzarrivals_cv %>% pull(.id) %>% max

[1] 120

# Check size of each training dataset
nzarrivals_cv %>%
  as_tibble() %>% # Cast to a tibble to be able to do away with time index
  group_by(.id) %>%
  summarize(
    size = n()
  )

# A tibble: 120 × 2
     .id  size
   <int> <int>
 1     1     8
 2     2     9
 3     3    10
 4     4    11
 5     5    12
 6     6    13
 7     7    14
 8     8    15
 9     9    16
10    10    17
# … with 110 more rows
…
        # Model 2: seasonal naïve component
        seas_naive = SNAIVE(Arrivals)
        
        )

Warning: 1 error encountered for dcmp
[1] promise already under evaluation: recursive default argument reference or earlier problems?

Warning: 1 error encountered for decomp
[1] Problem while computing `cmp = map(.fit, components)`.

fit_cv

# A mable: 120 x 4
# Key:     .id, Origin [120]
     .id Origin                    decomp seas_naive
   <int> <chr>                    <model>    <model>
 1     1 NZ                  <NULL model>   <SNAIVE>
 2     2 NZ     <STL decomposition model>   <SNAIVE>
 3     3 NZ     <STL decomposition model>   <SNAIVE>
 4     4 NZ     <STL decomposition model>   <SNAIVE>
 5     5 NZ     <STL decomposition model>   <SNAIVE>
 6     6 NZ     <STL decomposition model>   <SNAIVE>
 7     7 NZ     <STL decomposition model>   <SNAIVE>
 8     8 NZ     <STL decomposition model>   <SNAIVE>
 9     9 NZ     <STL decomposition model>   <SNAIVE>
10    10 NZ     <STL decomposition model>   <SNAIVE>
# … with 110 more rows

As expected we get a mable (model table) of 120 rows, each row corresponding to a training dataset. We have two different model columns (decomp and seas_naive) because we fitted two models to each of those trainig datasets.

We now move on and generate forecasts of a horizon of up to 8 for each of these models:

fc_cv <- fit_cv %>% forecast(h=8)
fc_cv

# A fable: 1,920 x 6 [1Q]
# Key:     .id, Origin, .model [240]
     .id Origin .model     Quarter          Arrivals .mean
   <int> <chr>  <chr>        <qtr>            <dist> <dbl>
 1     1 NZ     decomp     1983 Q1             t(NA)    NA
 2     1 NZ     decomp     1983 Q2             t(NA)    NA
 3     1 NZ     decomp     1983 Q3             t(NA)    NA
 4     1 NZ     decomp     1983 Q4             t(NA)    NA
 5     1 NZ     decomp     1984 Q1             t(NA)    NA
 6     1 NZ     decomp     1984 Q2             t(NA)    NA
 7     1 NZ     decomp     1984 Q3             t(NA)    NA
 8     1 NZ     decomp     1984 Q4             t(NA)    NA
 9     1 NZ     seas_naive 1983 Q1 N(42045, 2.1e+08) 42045
10     1 NZ     seas_naive 1983 Q2 N(63081, 2.1e+08) 63081
# … with 1,910 more rows

The result is a fable (forecasts table) with 1920 rows, that is 120 (training datasets) * 8 (number of forecasts) * 2 (number of models).

With the following code we will add a column 8 to the foregoing table that will indicate the horizon of each forecast:

fc_cv <- fc_cv %>%
  group_by(.id, .model) %>%
  mutate(h = row_number()) %>%
  ungroup() %>%
  as_fable(response = "Arrivals", distribution = Arrivals)

fc_cv

# A fable: 1,920 x 7 [1Q]
# Key:     .id, Origin, .model [240]
     .id Origin .model     Quarter          Arrivals .mean     h
   <int> <chr>  <chr>        <qtr>            <dist> <dbl> <int>
 1     1 NZ     decomp     1983 Q1             t(NA)    NA     1
 2     1 NZ     decomp     1983 Q2             t(NA)    NA     2
 3     1 NZ     decomp     1983 Q3             t(NA)    NA     3
 4     1 NZ     decomp     1983 Q4             t(NA)    NA     4
 5     1 NZ     decomp     1984 Q1             t(NA)    NA     5
 6     1 NZ     decomp     1984 Q2             t(NA)    NA     6
 7     1 NZ     decomp     1984 Q3             t(NA)    NA     7
 8     1 NZ     decomp     1984 Q4             t(NA)    NA     8
 9     1 NZ     seas_naive 1983 Q1 N(42045, 2.1e+08) 42045     1
10     1 NZ     seas_naive 1983 Q2 N(63081, 2.1e+08) 63081     2
# … with 1,910 more rows
…
We could even go beyond and create a single graph for each metric usng facet_wrap. For this, however, we would need to have a column detailing the metric corresponding to each value. That is, we need to make our data “longer” using pivot_longer(). You can see details on how to use this function on the notebook 2_2_tsibbles_import_timeplots_w_solutions.

summary_cv %>%
  pivot_longer(c(MAE, RMSE, MAPE, MASE, RMSSE), names_to = "metric", values_to = "value")

# A tibble: 80 × 5
       h .model     .type metric     value
   <int> <chr>      <chr> <chr>      <dbl>
 1     1 decomp     Test  MAE     9891.   
 2     1 decomp     Test  RMSE   12704.   
 3     1 decomp     Test  MAPE       6.50 
 4     1 decomp     Test  MASE       0.674
 5     1 decomp     Test  RMSSE      0.669
 6     1 seas_naive Test  MAE    14738.   
 7     1 seas_naive Test  RMSE   19112.   
 8     1 seas_naive Test  MAPE       9.79 
 9     1 seas_naive Test  MASE       1.00 
10     1 seas_naive Test  RMSSE      1.01 
# … with 70 more rows
…
