2_lineplots_boxplots_heatmaps
…
In these case we have four observational units that we measure over time:

Arrivals from Japan to Australia

Arrivals from New Zealand to Australia

Arrivals from UK to Australia

Arrivals from US to Australia

Lets confirm the unique values of the variable Origin

aus_arrivals

# A tsibble: 508 x 3 [1Q]
# Key:       Origin [4]
   Quarter Origin Arrivals
     <qtr> <chr>     <int>
 1 1981 Q1 Japan     14763
 2 1981 Q2 Japan      9321
 3 1981 Q3 Japan     10166
 4 1981 Q4 Japan     19509
 5 1982 Q1 Japan     17117
 6 1982 Q2 Japan     10617
 7 1982 Q3 Japan     11737
 8 1982 Q4 Japan     20961
 9 1983 Q1 Japan     20671
10 1983 Q2 Japan     12235
# … with 498 more rows
…
Note that, because we specified the argument color within the highest level aes() (the one within the function ggplot()), the colouring also applies to geom_smooth().

For noisy data, smoothing is sensible as well. For example, the dataset vic_elec contains half-hourly electricity consumption (average value) for the region of Victoria in Australia. Because of the high number of measurements, and the fluctuations in energy consumption within the day, weeks and months (different time periods), the data is very noisy. We may extract a trend using geom_smooth()

vic_elec

# A tsibble: 52,608 x 5 [30m] <Australia/Melbourne>
   Time                Demand Temperature Date       Holiday
   <dttm>               <dbl>       <dbl> <date>     <lgl>  
 1 2012-01-01 00:00:00  4383.        21.4 2012-01-01 TRUE   
 2 2012-01-01 00:30:00  4263.        21.0 2012-01-01 TRUE   
 3 2012-01-01 01:00:00  4049.        20.7 2012-01-01 TRUE   
 4 2012-01-01 01:30:00  3878.        20.6 2012-01-01 TRUE   
 5 2012-01-01 02:00:00  4036.        20.4 2012-01-01 TRUE   
 6 2012-01-01 02:30:00  3866.        20.2 2012-01-01 TRUE   
 7 2012-01-01 03:00:00  3694.        20.1 2012-01-01 TRUE   
 8 2012-01-01 03:30:00  3562.        19.6 2012-01-01 TRUE   
 9 2012-01-01 04:00:00  3433.        19.1 2012-01-01 TRUE   
10 2012-01-01 04:30:00  3359.        19.0 2012-01-01 TRUE   
# … with 52,598 more rows
…
Exercise LP. 1

The dataset global_economy, loaded along with the library fpp3 contains multiple time series of different economic measures for a number of countries. Let us first filter the data corresponding to Spain’s imports and exports

sp_exports_imports <- 
  global_economy %>%
  filter(Country == "Spain") %>% 
  select(Year, Imports, Exports)

sp_exports_imports

# A tsibble: 58 x 3 [1Y]
    Year Imports Exports
   <dbl>   <dbl>   <dbl>
 1  1960    6.90    8.37
 2  1961    8.60    7.97
 3  1962   10.1     8.30
 4  1963   10.8     7.71
 5  1964   11.4     8.81
 6  1965   13.1     8.19
 7  1966   13.6     8.89
 8  1967   11.9     8.55
 9  1968   12.6    10.6 
10  1969   13.1    11.3 
# … with 48 more rows
…
One row per year

Imports registered in one column and Exports registered in another column

To be able to handle this data more easily in ggplot2, it is sensible to reformat it. Specifically we want to:

Create a new categorical variable called measure that will take the values either Imports or Exports

Expand the number of rows of the dataset to have two rows per year. One row will correspond to Imports and one row to Exports

A third column called values will hold the corresponding value of Imports and Exports within each year.

That is, we want our dataset to look as follows:

# A tsibble: 116 x 3 [1Y]
# Key:       measure [2]
    Year measure value
   <dbl> <chr>   <dbl>
 1  1960 Imports  6.90
 2  1960 Exports  8.37
 3  1961 Imports  8.60
 4  1961 Exports  7.97
 5  1962 Imports 10.1 
 6  1962 Exports  8.30
 7  1963 Imports 10.8 
 8  1963 Exports  7.71
 9  1964 Imports 11.4 
10  1964 Exports  8.81
# … with 106 more rows

We can achieve this using pivot_longer() from the library dplyr as follows:

sp_exports_imports <- 
  sp_exports_imports %>% 
  pivot_longer(cols = Imports:Exports, # Columns we want to re-shape (cols from Imports to Exports)
               names_to = "measure", # Name of the new categorical variable
               values_to = "value")

sp_exports_imports

# A tsibble: 116 x 3 [1Y]
# Key:       measure [2]
    Year measure value
   <dbl> <chr>   <dbl>
 1  1960 Imports  6.90
 2  1960 Exports  8.37
 3  1961 Imports  8.60
 4  1961 Exports  7.97
 5  1962 Imports 10.1 
 6  1962 Exports  8.30
 7  1963 Imports 10.8 
 8  1963 Exports  7.71
 9  1964 Imports 11.4 
10  1964 Exports  8.81
# … with 106 more rows
…
Exercise LP. 2

We are going to use the library nycflights13, which loads the dataset detailing all the flights departing from the three New York City airports in 2013. Remember you need to install this package and then load it

# Run this if you do not have installed the package yet
install.packages("nycflights13", dependencies = TRUE)

# Run this to load the library
library(nycflights13)

# Run this to show the dataset
flights

# A tibble: 336,776 × 19
    year month   day dep_time sched_de…¹ dep_d…² arr_t…³ sched…⁴ arr_d…⁵ carrier
   <int> <int> <int>    <int>      <int>   <dbl>   <int>   <int>   <dbl> <chr>  
 1  2013     1     1      517        515       2     830     819      11 UA     
 2  2013     1     1      533        529       4     850     830      20 UA     
 3  2013     1     1      542        540       2     923     850      33 AA     
 4  2013     1     1      544        545      -1    1004    1022     -18 B6     
 5  2013     1     1      554        600      -6     812     837     -25 DL     
 6  2013     1     1      554        558      -4     740     728      12 UA     
 7  2013     1     1      555        600      -5     913     854      19 B6     
 8  2013     1     1      557        600      -3     709     723     -14 EV     
 9  2013     1     1      557        600      -3     838     846      -8 B6     
10  2013     1     1      558        600      -2     753     745       8 AA     
# … with 336,766 more rows, 9 more variables: flight <int>, tailnum <chr>,
#   origin <chr>, dest <chr>, air_time <dbl>, distance <dbl>, hour <dbl>,
#   minute <dbl>, time_hour <dttm>, and abbreviated variable names
#   ¹​sched_dep_time, ²​dep_delay, ³​arr_time, ⁴​sched_arr_time, ⁵​arr_delay
…
    # So that subsequent operations are not performed group-wise
    ungroup() %>% 
  
    # 3. Reorder columns
    select(date, month, everything())

`summarise()` has grouped output by 'month', 'day', 'origin'. You can override
using the `.groups` argument.

delays

# A tibble: 1,095 × 7
   date       month   day origin av_delay max_delay min_delay
   <date>     <int> <int> <chr>     <dbl>     <dbl>     <dbl>
 1 2013-01-01     1     1 EWR       20.9        456       -31
 2 2013-01-01     1     1 JFK        8.09       851       -48
 3 2013-01-01     1     1 LGA        7.89       145       -35
 4 2013-01-02     1     2 EWR       25.4        323       -52
 5 2013-01-02     1     2 JFK        3.27       368       -59
 6 2013-01-02     1     2 LGA        7.66       359       -29
 7 2013-01-03     1     3 EWR        6.10       176       -53
 8 2013-01-03     1     3 JFK        1.77       285       -65
 9 2013-01-03     1     3 LGA       10.2        257       -37
10 2013-01-04     1     4 EWR        1.77       276       -61
# … with 1,085 more rows
…
For example, the PBS dataset contained in the fpp3 package details the costs of Medicare prescriptions Australia. Let us first filter for a specific kind of drugs (antidiabetic drugs, corresponding to ATC2 == "A10") and then add all the costs per month (using group_by).

a10 <-
  
PBS %>% as_tibble() %>% 
  
  filter(ATC2 == "A10") %>%
  
  group_by(Month) %>% 
  
  summarise(TotalC = sum(Cost) / 1e6)

a10

# A tibble: 204 × 2
      Month TotalC
      <mth>  <dbl>
 1 1991 Jul   3.53
 2 1991 Aug   3.18
 3 1991 Sep   3.25
 4 1991 Oct   3.61
 5 1991 Nov   3.57
 6 1991 Dec   4.31
 7 1992 Jan   5.09
 8 1992 Feb   2.81
 9 1992 Mar   2.99
10 1992 Apr   3.20
# … with 194 more rows
…
diamonds_val <- 
  diamonds %>% 
    group_by(cut, color) %>% 
    summarize(
      value = sum(price, na.rm=TRUE)
    ) %>% 
    ungroup()

`summarise()` has grouped output by 'cut'. You can override using the `.groups`
argument.

diamonds_val

# A tibble: 35 × 3
   cut   color   value
   <ord> <ord>   <int>
 1 Fair  D      699443
 2 Fair  E      824838
 3 Fair  F     1194025
 4 Fair  G     1331126
 5 Fair  H     1556112
 6 Fair  I      819953
 7 Fair  J      592103
 8 Good  D     2254363
 9 Good  E     3194260
10 Good  F     3177637
# … with 25 more rows
…
First, we select all the numerical variables (the ones for which it makes sense to compute the correlation coefficient). We do this by using where(is.numeric) in combination with select. Let us understand how this works:

is.numeric returns TRUE if a given variable or vector is of type numeric. For example, the code below evaluates to TRUE because the variable carat is of type numeric:

diamonds %>% pull(carat) %>% is.numeric()

[1] TRUE

where() is a function that can be used to select variables of a dataframe for which a function returns TRUE. For example, the code below selects all the numerical variables (columns for which is.numeric() evaluates to true):

# Select variables for which the function
diamonds %>% select(where(is.numeric))

# A tibble: 53,940 × 7
   carat depth table price     x     y     z
   <dbl> <dbl> <dbl> <int> <dbl> <dbl> <dbl>
 1  0.23  61.5    55   326  3.95  3.98  2.43
 2  0.21  59.8    61   326  3.89  3.84  2.31
 3  0.23  56.9    65   327  4.05  4.07  2.31
 4  0.29  62.4    58   334  4.2   4.23  2.63
 5  0.31  63.3    58   335  4.34  4.35  2.75
 6  0.24  62.8    57   336  3.94  3.96  2.48
 7  0.24  62.3    57   336  3.95  3.98  2.47
 8  0.26  61.9    55   337  4.07  4.11  2.53
 9  0.22  65.1    61   337  3.87  3.78  2.49
10  0.23  59.4    61   338  4     4.05  2.39
# … with 53,930 more rows
…
  # Extract year, month and day of the month
  mutate(
    year = year(Date),
    month = month(Date, label = TRUE, abbr = FALSE),
    mday = mday(Date)
  ) %>% 
  
  # Filter for observations in 2012
  filter(year == 2012)

aux

# A tibble: 366 × 5
   Date       avg_demand_MWh  year month    mday
   <date>              <dbl> <dbl> <ord>   <int>
 1 2012-01-01          4634.  2012 January     1
 2 2012-01-02          5374.  2012 January     2
 3 2012-01-03          5565.  2012 January     3
 4 2012-01-04          4640.  2012 January     4
 5 2012-01-05          4387.  2012 January     5
 6 2012-01-06          4380.  2012 January     6
 7 2012-01-07          4219.  2012 January     7
 8 2012-01-08          4029.  2012 January     8
 9 2012-01-09          4454.  2012 January     9
10 2012-01-10          4480.  2012 January    10
# … with 356 more rows
…
    # Create new variables for the year, month and week of the year
    mutate(
      year = year(Week),
      month = month(Week, label = TRUE, abbr = FALSE),
      week = epiweek(Week)
    ) %>% 
  
  # Fitlter for years between 2010 and 2016 (included)
  filter(year >= 2010) %>% 
  filter(year < 2017)

aux_gasoline

# A tibble: 365 × 5
       Week Barrels  year month     week
     <week>   <dbl> <dbl> <ord>    <dbl>
 1 2010 W01    8.74  2010 January      1
 2 2010 W02    8.60  2010 January      2
 3 2010 W03    8.62  2010 January      3
 4 2010 W04    8.61  2010 January      4
 5 2010 W05    8.77  2010 February     5
 6 2010 W06    8.52  2010 February     6
 7 2010 W07    9.06  2010 February     7
 8 2010 W08    8.88  2010 February     8
 9 2010 W09    8.99  2010 March        9
10 2010 W10    8.85  2010 March       10
# … with 355 more rows
…
    # Create variables for year, month and day of the month
    mutate(
      year = year(Date),
      month = month(Date, label = TRUE, abbr = FALSE),
      mday = mday(Date) 
    ) %>% 
  
    # Filter for observations in 2016
    filter(year == 2016)

aux_ped

# A tibble: 309 × 5
   Date       pedestrians  year month    mday
   <date>           <int> <dbl> <ord>   <int>
 1 2016-01-01        8726  2016 January     1
 2 2016-01-02       17895  2016 January     2
 3 2016-01-03        6552  2016 January     3
 4 2016-01-04        7103  2016 January     4
 5 2016-01-05        7805  2016 January     5
 6 2016-01-06       13050  2016 January     6
 7 2016-01-07        8185  2016 January     7
 8 2016-01-08        8234  2016 January     8
 9 2016-01-09       21176  2016 January     9
10 2016-01-10        6219  2016 January    10
# … with 299 more rows
…
    # So that subsequent operations are not performed group-wise
    ungroup()

`summarise()` has grouped output by 'origin', 'month'. You can override using
the `.groups` argument.

delays_wday

# A tibble: 252 × 6
   origin month wday  av_delay max_delay min_delay
   <chr>  <int> <ord>    <dbl>     <dbl>     <dbl>
 1 EWR        1 Sun      14.5        262       -61
 2 EWR        1 Mon       7.30       271       -43
 3 EWR        1 Tue       8.34       456       -48
 4 EWR        1 Wed      25.0        497       -52
 5 EWR        1 Thu      18.7       1109       -53
 6 EWR        1 Fri      11.4        364       -61
 7 EWR        1 Sat      -3.63       270       -46
 8 EWR        2 Sun       2.97       773       -53
 9 EWR        2 Mon      14.0        300       -40
10 EWR        2 Tue       9.16       266       -70
# … with 242 more rows
…
